<?xml version="1.0" encoding="UTF-8" standalone="no"?>
<!DOCTYPE svg  PUBLIC '-//W3C//DTD SVG 1.1//EN'  'http://www.w3.org/Graphics/SVG/1.1/DTD/svg11.dtd'>
<svg xmlns="http://www.w3.org/2000/svg">
<defs>
<font id="Gotham-Book" horiz-adv-x="790">
<font-face underline-position="-50" font-weight="325" descent="-200" panose-1="0 0 0 0 0 0 0 0 0 0" units-per-em="1000" unicode-range="U+0020-2212" bbox="-215 -163 1159 901" x-height="517" underline-thickness="50" font-family="Gotham" ascent="800" cap-height="700"/>
<missing-glyph horiz-adv-x="1000"/>
<glyph glyph-name=".notdef" horiz-adv-x="1000"/>
<glyph glyph-name=".null" horiz-adv-x="0"/>
<glyph glyph-name="nonmarkingreturn" horiz-adv-x="333"/>
<glyph glyph-name="space" horiz-adv-x="300" unicode=" "/>
<glyph glyph-name="exclam" horiz-adv-x="271" unicode="!" d="M90 0v105h92v-105h-92zM114 198l-23 446v56h90v-56l-24 -446h-43z"/>
<glyph glyph-name="quotedbl" horiz-adv-x="440" unicode='&quot;' d="M65 428l30 272h93v-5l-81 -267h-42zM260 428l31 272h92v-5l-81 -267h-42z"/>
<glyph glyph-name="numbersign" horiz-adv-x="700" unicode="#" d="M273 459l-37 -214h191l36 214h-190zM615 246v-69h-130l-30 -177h-70l30 177h-191l-30 -177h-70l30 177h-109v69h121l36 212h-118v69h130l30 173h70l-30 -173h191l30 173h70l-30 -173h109v-69h-121l-36 -212h118z"/>
<glyph glyph-name="dollar" horiz-adv-x="636" unicode="$" d="M159 520q0 -46 28.5 -74t107.5 -49v236q-62 -3 -99 -34.5t-37 -78.5zM492 184q0 46 -29.5 74t-109.5 49v-241q64 4 101.5 36t37.5 81v1zM547 618l-43 -60q-74 60 -151 72v-247q114 -25 165 -71t51 -123q0 -80 -59 -131.5t-154 -57.5v-98h-64v100q-129 12 -236 103l45 60 q93 -84 194 -96v251q-113 27 -163 71.5t-50 122.5v1q0 77 59 128.5t151 56.5v58h64v-60q100 -11 191 -80z"/>
<glyph glyph-name="percent" horiz-adv-x="834" unicode="%" d="M624 48q40 0 65.5 35t25.5 86v2q0 52 -27 87.5t-66 35.5q-40 0 -65.5 -35t-25.5 -86v-2q0 -52 27 -87.5t66 -35.5zM622 -8q-69 0 -113 52t-44 125v2q0 73 45 126t114 53t113 -52t44 -125v-2q0 -74 -44.5 -126.5t-114.5 -52.5zM394 365l244 335h71l-270 -367l-243 -333 h-72zM210 652q-40 0 -65.5 -35t-25.5 -86v-2q0 -52 27 -87.5t66 -35.5q40 0 65.5 35t25.5 86v2q0 52 -27 87.5t-66 35.5zM210 350q-69 0 -113.5 52t-44.5 125v2q0 73 45 126t115 53q69 0 113 -52t44 -125v-2q0 -73 -45 -126t-114 -53z"/>
<glyph glyph-name="ampersand" horiz-adv-x="696" unicode="&amp;" d="M271 57q92 0 175 91l-187 193q-67 -25 -100.5 -64.5t-33.5 -85.5v-2q0 -57 41 -94.5t105 -37.5zM290 415q135 46 135 133v2q0 42 -28 69.5t-71 27.5q-47 0 -76.5 -29t-29.5 -72v-2q0 -31 15 -58.5t55 -70.5zM604 -14l-110 113q-101 -109 -229 -109q-95 0 -157.5 54.5 t-62.5 141.5v2q0 136 169 202q-70 82 -70 154v2q0 70 51.5 118t133.5 48q73 0 121.5 -46t48.5 -112v-2q0 -124 -165 -182l160 -163q45 65 84 156l65 -30q-53 -113 -101 -176l122 -125z"/>
<glyph glyph-name="quotesingle" horiz-adv-x="245" unicode="&apos;" d="M65 428l30 272h94v-5l-81 -267h-43z"/>
<glyph glyph-name="parenleft" horiz-adv-x="434" unicode="(" d="M345 -141q-277 156 -277 428t277 428l33 -51q-232 -148 -232 -377t232 -377z"/>
<glyph glyph-name="parenright" horiz-adv-x="434" unicode=")" d="M89 -141l-33 51q232 148 232 377t-232 377l33 51q277 -156 277 -428t-277 -428z"/>
<glyph glyph-name="asterisk" horiz-adv-x="430" unicode="*" d="M189 397l10 125l-103 -73l-27 47l116 53l-116 54l27 46l103 -72l-10 125h52l-10 -125l103 72l27 -46l-116 -54l116 -53l-27 -47l-103 73l10 -125h-52z"/>
<glyph glyph-name="plus" horiz-adv-x="625" unicode="+" d="M275 110v206h-207v72h207v206h75v-206h207v-72h-207v-206h-75z"/>
<glyph glyph-name="comma" horiz-adv-x="245" unicode="," d="M58 -122l-12 35q67 25 67 77v10h-36v105h92v-90q0 -60 -26.5 -92t-84.5 -45z"/>
<glyph glyph-name="hyphen" horiz-adv-x="408" unicode="-" d="M65 260v81h278v-81h-278z"/>
<glyph glyph-name="period" horiz-adv-x="245" unicode="." d="M77 0v105h92v-105h-92z"/>
<glyph glyph-name="slash" horiz-adv-x="508" unicode="../../../../../default.htm" d="M-21 -128l464 926h71l-464 -926h-71z"/>
<glyph glyph-name="zero" horiz-adv-x="715" unicode="0" d="M359 60q95 0 153.5 84.5t58.5 203.5v2q0 119 -59.5 204.5t-154.5 85.5t-154 -84t-59 -204v-2q0 -119 60 -207CB147AF9"/>
<glyph glyph-name="one" horiz-adv-x="358" unicode="1" d="M179 0v623l-132 -41l-19 64l171 59h58v-705h-78z"/>
<glyph glyph-name="two" horiz-adv-x="599" unicode="2" d="M48 0v61l254 224q82 73 114 120.5t32 99.5q0 60 -41 97t-100 37q-57 0 -100.5 -29t-87.5 -91l-58 42q51 76 108 112.5t144 36.5q94 0 155.5 -56t61.5 -142v-2q0 -73 -39 -129.5t-138 -142.5l-187 -166h371v-72h-489z"/>
<glyph glyph-name="three" horiz-adv-x="613" unicode="3" d="M311 -12q-165 0 -261 125l58 51q84 -104 204 -104q65 0 109 38t44 98v2q0 64 -54 99.5t-142 35.5h-45l-16 0EB7E0CA7E"/>
<glyph glyph-name="four" horiz-adv-x="671" unicode="4" d="M138 232h294v361zM432 0v166h-369l-20 58l396 481h70v-473h108v-66h-108v-166h-77z"/>
<glyph glyph-name="five" horiz-adv-x="612" unicode="5" d="M303 -12q-139 0 -250 111l52 57q99 -96 199 -96q74 0 121.5 44t47.5 111v2q0 65 -48.5 106t-125.5 41q-72 0 -147 -40l-53 35l20 341h403v-73h-334l-15 -224q71 31 138 31q105 0 173.5 -58t68.5 -156v-2q0 -102 -70 -166t-180 -64z"/>
<glyph glyph-name="six" horiz-adv-x="647" unicode="6" d="M334 58q76 0 122.5 46t46.5 114v2q0 65 -48 107.5t-123 42.5q-76 0 -125.5 -46t-49.5 -107v-2q0 -67 50 -112t127 -45zM333 -12q-113 0 -184 71q-45 45 -66.5 107t-21.5 164v2q0 164 78.5 272t212.5 108q109 0 207 -80l-46 -61q-82 69 -165 69q-97 0 -151.5 -87 t-54.5 -213v-10q74 108 200 108q101 0 171.5 -59.5t70.5 -155.5v-2q0 -101 -72 -167t-179 -66z"/>
<glyph glyph-name="seven" horiz-adv-x="596" unicode="7" d="M137 0l316 628h-385v72h475v-59l-318 -641h-88z"/>
<glyph glyph-name="eight" horiz-adv-x="630" unicode="8" d="M315 59q84 0 133.5 38t49.5 93v2q0 58 -53 95.5t-130 37.5t-130 -37.5t-53 -95.5v-2q0 -55 50 -93t133 -3802B3C19A9E"/>
<glyph glyph-name="nine" horiz-adv-x="647" unicode="9" d="M316 323q77 0 125.5 47.5t48.5 110.5v2q0 68 -50 113.5t-128 45.5q-76 0 -122 -48t-46 -116v-2q0 -67 48 -110t124 -43zM297 60q97 0 152.5 86t55.5 206v14q-72 -111 -198 -111q-108 0 -176 61t-68 156v2q0 101 71 169.5t181 68.5q112 0 184 -72q87 -87 87 -271v-2 q0 -167 -81 -273t-210 -106q-112 0 -216 86l46 61q85 -75 172 -75z"/>
<glyph glyph-name="colon" horiz-adv-x="255" unicode=":" d="M82 0v105h92v-105h-92zM82 412v105h92v-105h-92z"/>
<glyph glyph-name="semicolon" horiz-adv-x="255" unicode=";" d="M63 -122l-12 35q67 25 67 77v10h-36v105h92v-90q0 -60 -26.5 -92t-84.5 -45zM82 412v105h92v-105h-92z"/>
<glyph glyph-name="less" horiz-adv-x="625" unicode="&lt;" d="M534 86l-470 233v66l470 233v-77l-386 -188l386 -189v-78z"/>
<glyph glyph-name="equal" horiz-adv-x="625" unicode="=" d="M80 198v74h465v-74h-465zM80 432v74h465v-74h-465z"/>
<glyph glyph-name="greater" horiz-adv-x="625" unicode="&gt;" d="M92 86v77l385 188l-385 189v78l469 -233v-66z"/>
<glyph glyph-name="question" horiz-adv-x="537" unicode="?" d="M199 0v105h92v-105h-92zM220 198l-15 162l5 5q96 2 147.5 39.5t51.5 101.5v2q0 55 -40 92.5t-106 37.5q-101 0 -182 -94l-51 49q96 116 235 116q100 0 162 -56t62 -142v-2q0 -89 -58 -139.5t-150 -63.5l-10 -108h-51z"/>
<glyph glyph-name="at" horiz-adv-x="980" unicode="@" d="M450 133q60 0 108 48q56 56 56 132q0 55 -34.5 91t-87.5 36q-61 0 -110 -49q-54 -56 -54 -133q0 -58 34 -91.5t88 -33.5zM499 -162q-190 0 -318 127.5t-128 308.5q0 180 127.5 309t310.5 129q181 0 308.5 -118.5t127.5 -277.5q0 -119 -55.5 -182t-131.5 -63 q-53 0 -89 22.5t-51 61.5q-71 -84 -165 -84q-75 0 -127 50.5t-52 131.5q0 103 71.5 176t159.5 73q99 0 146 -83l13 69l67 -9l-40 -227q-7 -39 -7 -61q0 -38 22.5 -59.5t62.5 -21.5q58 0 99 53t41 153q0 142 -116.5 252t-283.5 110q-171 0 -286.5 -118t-115.5 -286 q0 -169 116 -285.5t294 -116.5q133 0 249 68l16 -27q-123 -75 -265 -75z"/>
<glyph glyph-name="A" d="M234 257h319l-159 356zM39 0l319 705h74l319 -705h-85l-82 185h-381l-83 -185h-81z" unicode="A"/>
<glyph glyph-name="B" horiz-adv-x="722" unicode="B" d="M584 198q0 58 -47.5 89t-138.5 31h-221v-247h235q80 0 126 33.5t46 91.5v2zM545 513v2q0 53 -40.5 83.5t-114.5 30.5h-213v-241h207q73 0 117 32.5t44 92.5zM99 0v700h298q119 0 183 -62q45 -47 45 -112v-2q0 -114 -111 -162q150 -45 150 -169v-2q0 -89 -69 -140 t-185 -51h-311z"/>
<glyph glyph-name="C" horiz-adv-x="738" unicode="C" d="M419 -12q-150 0 -250.5 104t-100.5 256v2q0 151 101 256.5t253 105.5q89 0 152 -28t121 -83l-54 -58q-101 96 -220 96q-116 0 -193.5 -83t-77.5 -204v-2q0 -122 78 -205.5t193 -83.5q68 0 120 25t106 76l52 -51q-60 -61 -125 -92t-155 -31z"/>
<glyph glyph-name="D" horiz-adv-x="782" unicode="D" d="M342 627h-164v-554h164q130 0 210 78t80 197v2q0 119 -80 198t-210 79zM99 0v700h243q163 0 267.5 -99.5t104.5 -248.5v-2q0 -150 -104.5 -250t-267.5 -100h-243z"/>
<glyph glyph-name="E" horiz-adv-x="670" unicode="E" d="M99 0v700h506v-72h-427v-239h382v-72h-382v-245h432v-72h-511z"/>
<glyph glyph-name="F" horiz-adv-x="656" unicode="F" d="M99 0v700h503v-73h-424v-250h379v-72h-379v-305h-79z"/>
<glyph glyph-name="G" horiz-adv-x="784" unicode="G" d="M424 -12q-161 0 -258.5 103t-97.5 257v2q0 148 99 255t252 107q84 0 144.5 -23t116.5 -70l-51 -60q-92 80 -213 80q-114 0 -190 -84t-76 -203v-2q0 -127 75.5 -209t201.5 -82q116 0 202 70v174h-213v71h289v-279q-120 -107 -281 -107z"/>
<glyph glyph-name="H" horiz-adv-x="760" unicode="H" d="M99 0v700h79v-311h404v311h79v-700h-79v315h-404v-315h-79z"/>
<glyph glyph-name="I" horiz-adv-x="291" unicode="I" d="M106 0v700h79v-700h-79z"/>
<glyph glyph-name="J" horiz-adv-x="553" unicode="J" d="M247 -10q-140 0 -216 124l57 49q34 -51 70.5 -75.5t89.5 -24.5q61 0 99 43.5t38 124.5v469h80v-468q0 -120 -64 -184q-60 -58 -154 -58z"/>
<glyph glyph-name="K" horiz-adv-x="719" unicode="K" d="M99 0v700h79v-418l402 418h102l-300 -306l313 -394h-99l-269 339l-149 -151v-188h-79z"/>
<glyph glyph-name="L" horiz-adv-x="619" unicode="L" d="M99 0v700h79v-627h394v-73h-473z"/>
<glyph glyph-name="M" horiz-adv-x="868" unicode="M" d="M99 0v700h80l255 -382l255 382h80v-700h-79v567l-255 -375h-4l-255 374v-566h-77z"/>
<glyph glyph-name="N" d="M99 0v700h74l441 -561v561h77v-700h-63l-452 574v-574h-77z" unicode="N"/>
<glyph glyph-name="O" horiz-adv-x="850" unicode="O" d="M426 61q119 0 196.5 83t77.5 204v2q0 121 -78.5 205t-197.5 84t-196.5 -83t-77.5 -204v-2q0 -121 78.5 -200785C0FAAB"/>
<glyph glyph-name="P" horiz-adv-x="668" unicode="P" d="M178 319h173q87 0 139.5 42.5t52.5 111.5v2q0 73 -50.5 112.5t-137.5 39.5h-177v-308zM99 0v700h262q119 0 190.5 -59.5t71.5 -162.5v-2q0 -109 -78.5 -169t-196.5 -60h-170v-247h-79z"/>
<glyph glyph-name="Q" horiz-adv-x="850" unicode="Q" d="M426 61q93 0 162 52l-131 112l53 59l131 -119q59 78 59 183v2q0 121 -78.5 205t-197.5 84t-196.5 -83t-77.5 -204v-2q0 -121 78.5 -205t197.5 -84zM791 38l-54 -59l-93 83q-95 -74 -220 -74q-156 0 -256 105.5t-100 254.5v2q0 149 101 255.5t257 106.5t256 -105.5 t100 -254.5v-2q0 -132 -83 -234z"/>
<glyph glyph-name="R" horiz-adv-x="723" unicode="R" d="M178 343h215q80 0 130 39t50 105v2q0 65 -47.5 101.5t-131.5 36.5h-216v-284zM99 0v700h301q129 0 199 -70q54 -54 54 -138v-2q0 -84 -52 -136t-138 -68l215 -286h-97l-203 272h-200v-272h-79z"/>
<glyph glyph-name="S" horiz-adv-x="640" unicode="S" d="M339 -10q-161 0 -286 112l49 58q56 -51 112.5 -75t127.5 -24q70 0 113 33.5t43 85.5v2q0 51 -38 81t-144 5090D80AA09"/>
<glyph glyph-name="T" horiz-adv-x="648" unicode="T" d="M284 0v627h-235v73h550v-73h-235v-627h-80z"/>
<glyph glyph-name="U" horiz-adv-x="759" unicode="U" d="M379 -11q-133 0 -212 79.5t-79 224.5v407h79v-402q0 -112 57 -174t157 -62q99 0 155 59t56 172v407h79v-401q0 -150 -79 -230t-213 -80z"/>
<glyph glyph-name="V" horiz-adv-x="750" unicode="V" d="M340 -5l-301 705h88l249 -603l250 603h85l-301 -705h-70z"/>
<glyph glyph-name="W" horiz-adv-x="1107" unicode="W" d="M295 -5l-250 705h86l200 -583l192 585h65l192 -585l200 583h83l-250 -705h-67l-192 568l-193 -568h-66z"/>
<glyph glyph-name="X" horiz-adv-x="725" unicode="X" d="M577 700h92l-258 -343l268 -357h-94l-224 302l-224 -302h-91l268 357l-258 343h93l214 -288z"/>
<glyph glyph-name="Y" horiz-adv-x="716" unicode="Y" d="M318 0v277l-291 423h96l236 -350l238 350h92l-291 -422v-278h-80z"/>
<glyph glyph-name="Z" horiz-adv-x="693" unicode="Z" d="M67 0v53l453 576h-438v71h546v-53l-454 -576h454v-71h-561z"/>
<glyph glyph-name="bracketleft" horiz-adv-x="439" unicode="[" d="M94 -130v830h286v-60h-213v-710h213v-60h-286z"/>
<glyph glyph-name="backslash" horiz-adv-x="508" unicode="\" d="M458 -128l-464 926h71l464 -926h-71z"/>
<glyph glyph-name="bracketright" horiz-adv-x="439" unicode="]" d="M59 -130v60h214v710h-214v60h287v-830h-287z"/>
<glyph glyph-name="asciicircum" horiz-adv-x="500" unicode="^" d="M65 493l155 209h60l155 -209h-68l-118 154l-118 -154h-66z"/>
<glyph glyph-name="underscore" horiz-adv-x="600" unicode="_" d="M-2 -160v63h604v-63h-604z"/>
<glyph glyph-name="grave" horiz-adv-x="500" unicode="`" d="M258 595l-114 108l80 37l94 -145h-60z"/>
<glyph glyph-name="a" horiz-adv-x="579" unicode="a" d="M255 50q72 0 122.5 39.5t50.5 100.5v50q-76 22 -152 22q-72 0 -111.5 -29t-39.5 -78v-2q0 -47 37.5 -75t92.5 -28zM240 -11q-78 0 -135.5 43t-57.5 118v2q0 80 60 123.5t161 43.5q81 0 159 -22v18q0 69 -40 105t-114 36t-157 -38l-23 63q94 43 188 43q110 0 167 -57 q53 -53 53 -151v-316h-74v78q-68 -89 -187 -89z"/>
<glyph glyph-name="b" horiz-adv-x="664" unicode="b" d="M347 58q78 0 130 54t52 145v2q0 89 -53 144.5t-129 55.5q-75 0 -131 -56.5t-56 -142.5v-2q0 -87 56 -143.5t131 -56.5zM361 -11q-122 0 -198 110v-99h-77v730h77v-317q78 115 198 115q99 0 173 -73t74 -195v-2q0 -121 -74 -195t-173 -74z"/>
<glyph glyph-name="c" horiz-adv-x="571" unicode="c" d="M319 -12q-112 0 -188.5 79t-76.5 189v2q0 111 76.5 190.5t188.5 79.5q120 0 207 -92l-51 -54q-74 78 -157 78q-78 0 -131.5 -58t-53.5 -142v-2q0 -84 54.5 -142.5t135.5 -58.5q86 0 158 77l49 -46q-90 -100 -211 -100z"/>
<glyph glyph-name="d" horiz-adv-x="664" unicode="d" d="M317 58q75 0 131 56.5t56 143.5v2q0 86 -56 142.5t-131 56.5q-78 0 -130 -54t-52 -145v-2q0 -89 53.5 -144.5t128.5 -55.5zM303 -11q-99 0 -173 73t-74 195v2q0 121 74 195t173 74q122 0 198 -110v312h77v-730h-77v104q-78 -115 -198 -115z"/>
<glyph glyph-name="e" horiz-adv-x="592" unicode="e" d="M132 287h333q-6 76 -49 126t-116 50q-67 0 -113.5 -50t-54.5 -126zM312 -12q-109 0 -183.5 75.5t-74.5 193.5v2q0 113 71 191t177 78q111 0 176 -78t65 -195q0 -16 -1 -25h-410q8 -82 59.5 -128.5t122.5 -46.5q93 0 163 73l48 -43q-87 -97 -213 -97z"/>
<glyph glyph-name="f" horiz-adv-x="367" unicode="f" d="M115 0v449h-71v67h71v45q0 88 45 133q40 40 111 40q49 0 85 -13v-67q-45 13 -75 13q-90 0 -90 -110v-42h164v-66h-163v-449h-77z"/>
<glyph glyph-name="g" horiz-adv-x="664" unicode="g" d="M314 108q76 0 133 49.5t57 125.5v2q0 77 -56.5 126t-133.5 49q-75 0 -127 -48t-52 -126v-2q0 -76 52.5 -126t126.5 -50zM315 -162q-131 0 -235 72l35 60q91 -66 199 -66q87 0 137.5 47.5t50.5 136.5v61q-82 -109 -203 -109q-98 0 -170.5 67.5t-72.5 174.5v2 q0 109 73 176.5t170 67.5q124 0 202 -104v93h77v-427q0 -117 -66 -183q-69 -69 -197 -69z"/>
<glyph glyph-name="h" horiz-adv-x="616" unicode="h" d="M86 0v730h77v-303q61 101 177 101q92 0 145 -56.5t53 -150.5v-321h-77v302q0 73 -37.5 114.5t-105.5 41.5q-67 0 -111 -45t-44 -117v-296h-77z"/>
<glyph glyph-name="i" horiz-adv-x="263" unicode="i" d="M93 0v517h77v-517h-77zM88 630v85h88v-85h-88z"/>
<glyph glyph-name="j" horiz-adv-x="263" unicode="j" d="M44 -163q-27 0 -48 5v63q18 -3 38 -3q59 0 59 69v546h77v-547q0 -67 -33 -100t-93 -33zM88 630v85h88v-85h-88z"/>
<glyph glyph-name="k" horiz-adv-x="569" unicode="k" d="M86 0v730h77v-504l279 291h96l-217 -222l224 -295h-92l-185 241l-105 -106v-135h-77z"/>
<glyph glyph-name="l" horiz-adv-x="263" unicode="l" d="M93 0v730h77v-730h-77z"/>
<glyph glyph-name="m" horiz-adv-x="951" unicode="m" d="M86 0v517h77v-87q65 98 167 98q116 0 166 -103q67 103 182 103q89 0 140.5 -56t51.5 -152v-320h-77v302q0 75 -35.5 115.5t-98.5 40.5q-61 0 -101.5 -43t-40.5 -117v-298h-77v304q0 72 -35.5 113t-97.5 41t-103 -46t-41 -117v-295h-77z"/>
<glyph glyph-name="n" horiz-adv-x="616" unicode="n" d="M86 0v517h77v-90q61 101 177 101q92 0 145 -56.5t53 -150.5v-321h-77v302q0 73 -37.5 114.5t-105.5 41.5q-67 0 -111 -45t-44 -117v-296h-77z"/>
<glyph glyph-name="o" horiz-adv-x="646" unicode="o" d="M324 57q83 0 136.5 58t53.5 141v2q0 84 -55.5 143t-136.5 59q-82 0 -135.5 -58.5t-53.5 -141.5v-2q0 -84 50343507A34"/>
<glyph glyph-name="p" horiz-adv-x="664" unicode="p" d="M347 58q78 0 130 54t52 145v2q0 89 -53 144.5t-129 55.5q-75 0 -131 -56.5t-56 -142.5v-2q0 -87 56 -143.5t131 -56.5zM86 -160v677h77v-104q78 115 198 115q99 0 173 -73t74 -195v-2q0 -121 -74 -195t-173 -74q-122 0 -198 110v-259h-77z"/>
<glyph glyph-name="q" horiz-adv-x="664" unicode="q" d="M317 58q75 0 131 56.5t56 143.5v2q0 86 -56 142.5t-131 56.5q-78 0 -130 -54t-52 -145v-2q0 -89 53.5 -144.5t128.5 -55.5zM501 -160v264q-78 -115 -198 -115q-99 0 -173 73t-74 195v2q0 121 74 195t173 74q122 0 198 -110v99h77v-677h-77z"/>
<glyph glyph-name="r" horiz-adv-x="405" unicode="r" d="M86 0v517h77v-135q29 65 81.5 104.5t120.5 39.5h9v-83h-6q-89 0 -147 -62t-58 -175v-206h-77z"/>
<glyph glyph-name="s" horiz-adv-x="498" unicode="s" d="M257 -10q-56 0 -113.5 20.5t-100.5 55.5l39 55q88 -66 179 -66q47 0 77 22.5t30 59.5v2q0 35 -32.5 54t-960895613A07"/>
<glyph glyph-name="t" horiz-adv-x="404" unicode="t" d="M259 -9q-67 0 -106.5 35.5t-39.5 110.5v312h-72v68h72v156h77v-156h164v-68h-164v-302q0 -86 87 -86q38 0 75 18v-66q-42 -22 -93 -22z"/>
<glyph glyph-name="u" horiz-adv-x="616" unicode="u" d="M276 -11q-92 0 -145 56.5t-53 150.5v321h77v-302q0 -73 37.5 -114.5t105.5 -41.5q67 0 111 45t44 117v296h76v-517h-76v90q-63 -101 -177 -101z"/>
<glyph glyph-name="v" horiz-adv-x="587" unicode="v" d="M259 -4l-224 521h85l174 -429l175 429h83l-225 -521h-68z"/>
<glyph glyph-name="w" horiz-adv-x="861" unicode="w" d="M223 -4l-181 521h82l136 -415l139 417h64l140 -417l136 415h80l-182 -521h-67l-139 408l-140 -408h-68z"/>
<glyph glyph-name="x" horiz-adv-x="574" unicode="x" d="M135 517l152 -202l154 202h86l-196 -253l204 -264h-89l-160 213l-161 -213h-86l202 263l-194 254h88z"/>
<glyph glyph-name="y" horiz-adv-x="591" unicode="y" d="M307 86l166 431h82l-217 -534q-33 -79 -73 -112.5t-99 -33.5q-56 0 -110 26l26 61q37 -19 81 -19q35 0 59 21.5t47 75.5l-235 515h85z"/>
<glyph glyph-name="z" horiz-adv-x="556" unicode="z" d="M56 0v49l343 403h-331v65h436v-49l-344 -403h344v-65h-448z"/>
<glyph glyph-name="braceleft" horiz-adv-x="483" unicode="{" d="M416 -141q-127 23 -172 70t-45 132q0 7 0.5 37t0.5 39q0 61 -26.5 90.5t-91.5 29.5h-26v60h26q65 0 91.5 203D93AAA20"/>
<glyph glyph-name="bar" horiz-adv-x="303" unicode="|" d="M119 -128v926h65v-926h-65z"/>
<glyph glyph-name="braceright" horiz-adv-x="483" unicode="}" d="M67 -141l-13 51q101 26 129 57.5t28 103.5q0 10 -0.5 37t-0.5 38q0 60 26.5 92.5t77.5 48.5q-53 17 -78.5 49t-25.5 92q0 11 0.5 38t0.5 37q0 72 -28 103.5t-129 57.5l13 51q127 -23 172 -70t45 -132q0 -7 -0.5 -37t-0.5 -39q0 -61 26.5 -90.5t90.5 -29.5h26v-60h-26 q-64 0 -90.5 -29.5t-26.5 -90.5q0 -9 0.5 -39t0.5 -37q0 -85 -45 -132t-172 -70z"/>
<glyph glyph-name="asciitilde" horiz-adv-x="474" unicode="~" d="M306 246q-24 0 -72 21q-46 20 -62 20q-19 0 -29.5 -10.5t-22.5 -39.5l-47 13q15 57 37 81.5t58 24.5q24 0 0ECC305AB0"/>
<glyph glyph-name="uni00A0" horiz-adv-x="300" unicode=" "/>
<glyph glyph-name="exclamdown" horiz-adv-x="271" unicode="¡" d="M91 0v57l23 445h43l24 -445v-57h-90zM90 595v105h92v-105h-92z"/>
<glyph glyph-name="cent" horiz-adv-x="581" unicode="¢" d="M136 355q0 -62 31 -112t82 -73l76 386h-4q-78 0 -131.5 -58t-53.5 -141v-2zM416 706l-18 -91q70 -18 132 -83l-50 -52q-51 51 -98 67l-77 -392q7 -1 21 -1q87 0 159 77l48 -45q-89 -101 -211 -101q-18 0 -27 1l-18 -92h-65l21 106q-78 28 -126.5 97.5t-48.5 155.5v2 q0 111 77 190.5t188 79.5h12l16 81h65z"/>
<glyph glyph-name="sterling" horiz-adv-x="644" unicode="£" d="M67 0v46l84 21v228h-84v69h84v108q0 115 63 178q60 60 158 60q131 0 214 -108l-61 -48q-33 41 -68 62t-86 21q-59 0 -98 -37q-43 -45 -43 -128v-108h279v-69h-279v-225h355v-70h-518z"/>
<glyph glyph-name="yen" horiz-adv-x="686" unicode="¥" d="M100 266v62h180l-253 372h94l223 -342l225 342h90l-255 -372h182v-62h-205v-88h205v-62h-205v-116h-76v116h-205v62h205v88h-205z"/>
<glyph glyph-name="section" horiz-adv-x="632" unicode="§" d="M387 263q48 0 78.5 20.5t30.5 48.5v2q0 26 -31.5 47t-110.5 40q-65 16 -109 16q-48 0 -78.5 -20.5t-30.5 -48.5v-2q0 -26 31.5 -47t110.5 -40q64 -16 109 -16zM438 226q74 -36 74 -101v-2q0 -60 -50 -96.5t-134 -36.5q-136 0 -229 95l50 48q79 -77 181 -77 q50 0 76.5 18.5t26.5 47.5v2q0 28 -36.5 49.5t-126.5 42.5q-114 27 -161 59t-47 83v2q0 45 36 74.5t96 39.5q-74 38 -74 101v2q0 60 50 96.5t134 36.5q136 0 229 -95l-50 -48q-79 77 -181 77q-50 0 -76.5 -18t-26.5 -48v-2q0 -28 35.5 -49t127.5 -43q115 -27 161.5 -58.5 t46.5 -83.5v-2q0 -44 -36 -74t-96 -40z"/>
<glyph glyph-name="dieresis" horiz-adv-x="500" unicode="¨" d="M118 595v95h89v-95h-89zM293 595v95h89v-95h-89z"/>
<glyph glyph-name="copyright" horiz-adv-x="830" unicode="©" d="M419 163q-79 0 -132.5 56t-53.5 135v2q0 79 54 135t134 56q81 0 144 -60l-37 -40q-52 50 -108 50t-93.5 -403F70DEA7E"/>
<glyph glyph-name="ordfeminine" horiz-adv-x="390" unicode="ª" d="M58 289v47h260v-47h-260zM177 450q36 0 61.5 19.5t25.5 50.5v24q-37 11 -76 11q-35 0 -55 -14.5t-20 -38.5v-2q0 -23 18.5 -36.5t45.5 -13.5zM168 408q-43 0 -75 24t-32 66v2q0 44 34 68.5t89 24.5q40 0 80 -11v5q0 34 -20.5 52.5t-57.5 18.5t-86 -22l-15 42 q57 25 106 25q59 0 93 -32q29 -29 29 -84v-173h-49v38q-36 -44 -96 -44z"/>
<glyph glyph-name="guillemotleft" horiz-adv-x="550" unicode="«" d="M213 42l-165 213v8l165 212l56 -32l-133 -183l133 -186zM436 42l-165 213v8l165 212l55 -32l-132 -183l132 -186z"/>
<glyph glyph-name="registered" horiz-adv-x="403" unicode="®" d="M168 539h43q36 0 36 29t-36 29h-43v-58zM134 450v177h80q30 0 49 -14.5t19 -41.5q0 -42 -41 -54l47 -67h-40F71911AD5"/>
<glyph glyph-name="macron" horiz-adv-x="500" unicode="¯" d="M94 615v63h312v-63h-312z"/>
<glyph glyph-name="degree" horiz-adv-x="458" unicode="°" d="M229 452q42 0 70.5 30t28.5 70v2q0 40 -28.5 70t-70.5 30t-70.5 -30t-28.5 -70v-2q0 -40 28.5 -70t70.5 -30zM229 400q-62 0 -109.5 46t-47.5 106v2q0 61 47.5 106.5t109.5 45.5t109.5 -45.5t47.5 -106.5v-2q0 -60 -47.5 -106t-109.5 -46z"/>
<glyph glyph-name="plusminus" horiz-adv-x="625" unicode="±" d="M549 0h-472v69h472v-69zM549 364h-200v-196h-73v196h-199v70h199v196h73v-196h200v-70z"/>
<glyph glyph-name="two.sup" horiz-adv-x="400" unicode="²" d="M59 424v44l144 126q42 35 59.5 60t17.5 52q0 30 -21 49t-53 19q-58 0 -104 -67l-38 27q57 87 145 87q54 0 89.5 -32t35.5 -79q0 -39 -20.5 -69t-70.5 -73l-113 -96h207v-48h-278z"/>
<glyph glyph-name="three.sup" horiz-adv-x="400" unicode="³" d="M197 414q-88 0 -146 70l35 35q49 -58 112 -58q34 0 57.5 20t23.5 52q0 34 -28 52.5t-73 18.5h-33l-10 33l10033CAEAE8"/>
<glyph glyph-name="acute" horiz-adv-x="500" unicode="´" d="M182 595l94 145l80 -37l-114 -108h-60z"/>
<glyph glyph-name="paragraph" horiz-adv-x="510" unicode="¶" d="M338 0v264h-11q-123 0 -201 57.5t-78 159.5v2q0 100 73 158.5t191 58.5h106v-700h-80z"/>
<glyph glyph-name="periodcentered" horiz-adv-x="245" unicode="·" d="M77 248v106h92v-106h-92z"/>
<glyph glyph-name="cedilla" horiz-adv-x="500" unicode="¸" d="M225 -155l-75 34l92 134h61z"/>
<glyph glyph-name="one.sup" horiz-adv-x="325" unicode="¹" d="M211 424h-52v339l-86 -33l-13 45l110 43h41v-394z"/>
<glyph glyph-name="ordmasculine" horiz-adv-x="390" unicode="º" d="M196 455q40 0 66 29t26 70v2q0 42 -27 71.5t-67 29.5t-66 -29t-26 -70v-2q0 -42 27 -71.5t67 -29.5zM51 280E56E25A4E"/>
<glyph glyph-name="guillemotright" horiz-adv-x="550" unicode="»" d="M115 42l-56 32l132 184l-132 185l56 32l164 -212v-8zM337 42l-56 32l133 184l-133 185l56 32l165 -212v-8z"/>
<glyph glyph-name="onequarter" horiz-adv-x="825" unicode="¼" d="M677 130v201l-148 -201h148zM208 313h-52v339l-86 -33l-13 45l110 42h41v-393zM135 0l248 359l228 341h54l-248 -359l-228 -341h-54zM725 87v-89h-48v89h-190l-11 45l193 261h56v-263h54v-43h-54z"/>
<glyph glyph-name="onehalf" horiz-adv-x="825" unicode="½" d="M208 313h-52v339l-86 -33l-13 45l110 42h41v-393zM125 0l248 359l228 341h54l-248 -359l-228 -341h-54zM494 0v44l144 126q42 35 59.5 60t17.5 52q0 30 -21 49t-53 19q-58 0 -104 -67l-38 27q57 87 145 87q54 0 89.5 -32t35.5 -79q0 -39 -20.5 -69t-70.5 -73l-113 -96 h207v-48h-278z"/>
<glyph glyph-name="threequarters" horiz-adv-x="900" unicode="¾" d="M752 130v201l-148 -201h148zM205 0l248 359l228 341h54l-248 -359l-228 -341h-54zM197 303q-88 0 -146 70l35 35q49 -58 112 -58q34 0 57.5 20t23.5 52q0 34 -28 52.5t-73 18.5h-33l-10 33l126 126h-188v48h254v-42l-124 -123q58 -5 93.5 -33t35.5 -79q0 -53 -38.5 -86.5 t-96.5 -33.5zM800 87v-89h-48v89h-190l-11 45l193 261h56v-263h54v-43h-54z"/>
<glyph glyph-name="questiondown" horiz-adv-x="537" unicode="¿" d="M272 -9q-101 0 -162.5 55.5t-61.5 142.5v2q0 89 58 139.5t150 63.5l9 108h51l16 -162l-5 -5q-96 -2 -147.5 -39.5t-51.5 -101.5v-2q0 -55 40 -92.5t106 -37.5q101 0 181 94l51 -49q-96 -116 -234 -116zM246 595v105h92v-105h-92z"/>
<glyph glyph-name="Agrave" d="M427 772h-64l-115 93l78 36zM234 257h319l-159 356zM39 0l319 705h74l319 -705h-85l-82 185h-381l-83 -185h-81z" unicode="À"/>
<glyph glyph-name="Aacute" d="M363 772l100 129l79 -36l-115 -93h-64zM234 257h319l-159 356zM39 0l319 705h74l319 -705h-85l-82 185h-381l-83 -185h-81z" unicode="Á"/>
<glyph glyph-name="Acircumflex" d="M249 770l110 118h72l110 -118h-72l-75 60l-75 -60h-70zM234 257h319l-159 356zM39 0l319 705h74l319 -705h-85l-82 185h-381l-83 -185h-81z" unicode="Â"/>
<glyph glyph-name="Atilde" d="M468 772q-23 0 -77 22q-42 17 -57 17q-19 0 -29.5 -10.5t-22.5 -37.5l-49 14q15 53 37 77.5t57 24.5q23 0 77 -22q45 -17 57 -17q19 0 29.5 10.5t22.5 36.5l49 -14q-15 -53 -37 -77t-57 -24zM234 257h319l-159 356zM39 0l319 705h74l319 -705h-85l-82 185h-381l-83 -185 h-81z" unicode="Ã"/>
<glyph glyph-name="Adieresis" d="M255 772v90h93v-90h-93zM442 772v90h93v-90h-93zM234 257h319l-159 356zM39 0l319 705h74l319 -705h-85l-82 185h-381l-83 -185h-81z" unicode="Ä"/>
<glyph glyph-name="Aring" d="M395 689q29 0 48 17.5t19 43.5t-19 43.5t-48 17.5t-48 -17.5t-19 -43.5t19 -43.5t48 -17.5zM234 257h319l-159 356zM39 0l300 664q-55 28 -55 86q0 42 32.5 70.5t78.5 28.5t78.5 -28.5t32.5 -70.5q0 -57 -55 -86l300 -664h-85l-82 185h-381l-83 -185h-81z" unicode="Å"/>
<glyph glyph-name="AE" horiz-adv-x="1045" unicode="Æ" d="M249 257h242v373h-24zM17 0l411 700h552v-72h-409v-239h364v-72h-364v-245h414v-72h-494v185h-282l-109 -185h-83z"/>
<glyph glyph-name="Ccedilla" horiz-adv-x="738" unicode="Ç" d="M369 -155l-75 34l77 112q-133 17 -218 117.5t-85 239.5v2q0 151 101 256.5t253 105.5q89 0 152 -28t121 -80100D9EA3B"/>
<glyph glyph-name="Egrave" horiz-adv-x="670" unicode="È" d="M99 0v700h506v-72h-427v-239h382v-72h-382v-245h432v-72h-511zM386 762h-64l-115 93l78 36z"/>
<glyph glyph-name="Eacute" horiz-adv-x="670" unicode="É" d="M99 0v700h506v-72h-427v-239h382v-72h-382v-245h432v-72h-511zM321 762l100 129l79 -36l-115 -93h-64z"/>
<glyph glyph-name="Ecircumflex" horiz-adv-x="670" unicode="Ê" d="M207 762l110 118h72l110 -118h-72l-75 60l-75 -60h-70zM99 0v700h506v-72h-427v-239h382v-72h-382v-245h432v-72h-511z"/>
<glyph glyph-name="Edieresis" horiz-adv-x="670" unicode="Ë" d="M99 0v700h506v-72h-427v-239h382v-72h-382v-245h432v-72h-511zM214 762v90h93v-90h-93zM401 762v90h93v-90h-93z"/>
<glyph glyph-name="Igrave" horiz-adv-x="291" unicode="Ì" d="M178 762h-64l-115 93l78 36zM106 0v700h79v-700h-79z"/>
<glyph glyph-name="Iacute" horiz-adv-x="291" unicode="Í" d="M114 762l100 129l79 -36l-115 -93h-64zM106 0v700h79v-700h-79z"/>
<glyph glyph-name="Icircumflex" horiz-adv-x="291" unicode="Î" d="M0 762l110 118h72l110 -118h-72l-75 60l-75 -60h-70zM106 0v700h79v-700h-79z"/>
<glyph glyph-name="Idieresis" horiz-adv-x="291" unicode="Ï" d="M7 762v90h93v-90h-93zM194 762v90h93v-90h-93zM106 0v700h79v-700h-79z"/>
<glyph glyph-name="Eth" horiz-adv-x="812" unicode="Ð" d="M418 316h-210v-243h164q130 0 210 78t80 197v2q0 119 -80 198t-210 79h-164v-239h210v-72zM129 0v316h-75v72h75v312h243q163 0 267.5 -99.5t104.5 -248.5v-2q0 -150 -104.5 -250t-267.5 -100h-243z"/>
<glyph glyph-name="Ntilde" d="M99 0v700h74l441 -561v561h77v-700h-63l-452 574v-574h-77zM468 759q-23 0 -77 22q-42 17 -57 17q-19 0 -29.5 -10.5t-22.5 -37.5l-49 14q15 53 37 77.5t57 24.5q23 0 77 -22q45 -17 57 -17q19 0 29.5 10.5t22.5 36.5l49 -14q-15 -53 -37 -77t-57 -24z" unicode="Ñ"/>
<glyph glyph-name="Ograve" horiz-adv-x="850" unicode="Ò" d="M426 61q119 0 196.5 83t77.5 204v2q0 121 -78.5 205t-197.5 84t-196.5 -83t-77.5 -204v-2q0 -121 78.5 -205t197.5 -84zM424 -12q-156 0 -256 105.5t-100 254.5v2q0 149 101 255.5t257 106.5t256 -105.5t100 -254.5v-2q0 -149 -101 -255.5t-257 -106.5zM457 772h-64 l-115 93l78 36z"/>
<glyph glyph-name="Oacute" horiz-adv-x="850" unicode="Ó" d="M426 61q119 0 196.5 83t77.5 204v2q0 121 -78.5 205t-197.5 84t-196.5 -83t-77.5 -204v-2q0 -121 78.5 -205t197.5 -84zM424 -12q-156 0 -256 105.5t-100 254.5v2q0 149 101 255.5t257 106.5t256 -105.5t100 -254.5v-2q0 -149 -101 -255.5t-257 -106.5zM393 772l100 129 l79 -36l-115 -93h-64z"/>
<glyph glyph-name="Ocircumflex" horiz-adv-x="850" unicode="Ô" d="M279 772l110 118h72l110 -118h-72l-75 60l-75 -60h-70zM426 61q119 0 196.5 83t77.5 204v2q0 121 -78.5 200816B3BADA"/>
<glyph glyph-name="Otilde" horiz-adv-x="850" unicode="Õ" d="M426 61q119 0 196.5 83t77.5 204v2q0 121 -78.5 205t-197.5 84t-196.5 -83t-77.5 -204v-2q0 -121 78.5 -205t197.5 -84zM424 -12q-156 0 -256 105.5t-100 254.5v2q0 149 101 255.5t257 106.5t256 -105.5t100 -254.5v-2q0 -149 -101 -255.5t-257 -106.5zM498 772 q-23 0 -77 22q-42 17 -57 17q-19 0 -29.5 -10.5t-22.5 -37.5l-49 14q15 53 37 77.5t57 24.5q23 0 77 -22q45 -17 57 -17q19 0 29.5 10.5t22.5 36.5l49 -14q-15 -53 -37 -77t-57 -24z"/>
<glyph glyph-name="Odieresis" horiz-adv-x="850" unicode="Ö" d="M426 61q119 0 196.5 83t77.5 204v2q0 121 -78.5 205t-197.5 84t-196.5 -83t-77.5 -204v-2q0 -121 78.5 -205t197.5 -84zM424 -12q-156 0 -256 105.5t-100 254.5v2q0 149 101 255.5t257 106.5t256 -105.5t100 -254.5v-2q0 -149 -101 -255.5t-257 -106.5zM285 772v90h93 v-90h-93zM472 772v90h93v-90h-93z"/>
<glyph glyph-name="multiply" horiz-adv-x="625" unicode="×" d="M486 127l-174 177l-174 -177l-50 50l176 174l-176 174l52 52l174 -177l174 177l50 -50l-177 -174l177 -174z"/>
<glyph glyph-name="Oslash" horiz-adv-x="850" unicode="Ø" d="M426 59q119 0 197 83.5t78 205.5v1q0 107 -64 189l-383 -419q73 -60 172 -60zM149 351q0 -110 63 -190l383 420q-75 60 -171 60q-119 0 -197 -83.5t-78 -205.5v-1zM707 705h83l-99 -109q91 -102 91 -244v-2q0 -149 -101 -255.5t-257 -106.5q-126 0 -220 73l-61 -66h-83 l98 108q-90 103 -90 245v2q0 149 101 255.5t257 106.5q125 0 219 -73z"/>
<glyph glyph-name="Ugrave" horiz-adv-x="759" unicode="Ù" d="M379 -11q-133 0 -212 79.5t-79 224.5v407h79v-402q0 -112 57 -174t157 -62q99 0 155 59t56 172v407h79v-401q0 -150 -79 -230t-213 -80zM411 759h-64l-115 93l78 36z"/>
<glyph glyph-name="Uacute" horiz-adv-x="759" unicode="Ú" d="M379 -11q-133 0 -212 79.5t-79 224.5v407h79v-402q0 -112 57 -174t157 -62q99 0 155 59t56 172v407h79v-401q0 -150 -79 -230t-213 -80zM347 759l100 129l79 -36l-115 -93h-64z"/>
<glyph glyph-name="Ucircumflex" horiz-adv-x="759" unicode="Û" d="M233 759l110 118h72l110 -118h-72l-75 60l-75 -60h-70zM379 -11q-133 0 -212 79.5t-79 224.5v407h79v-402q0 -112 57 -174t157 -62q99 0 155 59t56 172v407h79v-401q0 -150 -79 -230t-213 -80z"/>
<glyph glyph-name="Udieresis" horiz-adv-x="759" unicode="Ü" d="M379 -11q-133 0 -212 79.5t-79 224.5v407h79v-402q0 -112 57 -174t157 -62q99 0 155 59t56 172v407h79v-401q0 -150 -79 -230t-213 -80zM240 759v90h93v-90h-93zM427 759v90h93v-90h-93z"/>
<glyph glyph-name="Yacute" horiz-adv-x="716" unicode="Ý" d="M326 759l100 129l79 -36l-115 -93h-64zM318 0v277l-291 423h96l236 -350l238 350h92l-291 -422v-278h-80z"/>
<glyph glyph-name="Thorn" horiz-adv-x="673" unicode="Þ" d="M178 198h173q87 0 139.5 43t52.5 112v2q0 73 -50.5 112.5t-137.5 39.5h-177v-309zM99 0v700h79v-120h183q119 0 190.5 -60t71.5 -162v-2q0 -109 -78.5 -169.5t-196.5 -60.5h-170v-126h-79z"/>
<glyph glyph-name="germandbls" horiz-adv-x="620" unicode="ß" d="M292 -2v62q90 2 140.5 36t50.5 96v2q0 58 -50.5 93t-140.5 44v57q148 55 148 162v2q0 52 -36.5 84.5t-94.503A76C8A01"/>
<glyph glyph-name="agrave" horiz-adv-x="579" unicode="à" d="M261 595l-114 108l80 37l94 -145h-60zM255 50q72 0 122.5 39.5t50.5 100.5v50q-76 22 -152 22q-72 0 -111.5 -29t-39.5 -78v-2q0 -47 37.5 -75t92.5 -28zM240 -11q-78 0 -135.5 43t-57.5 118v2q0 80 60 123.5t161 43.5q81 0 159 -22v18q0 69 -40 105t-114 36t-157 -38 l-23 63q94 43 188 43q110 0 167 -57q53 -53 53 -151v-316h-74v78q-68 -89 -187 -89z"/>
<glyph glyph-name="aacute" horiz-adv-x="579" unicode="á" d="M258 595l94 145l80 -37l-114 -108h-60zM255 50q72 0 122.5 39.5t50.5 100.5v50q-76 22 -152 22q-72 0 -111.5 -29t-39.5 -78v-2q0 -47 37.5 -75t92.5 -28zM240 -11q-78 0 -135.5 43t-57.5 118v2q0 80 60 123.5t161 43.5q81 0 159 -22v18q0 69 -40 105t-114 36t-157 -38 l-23 63q94 43 188 43q110 0 167 -57q53 -53 53 -151v-316h-74v78q-68 -89 -187 -89z"/>
<glyph glyph-name="acircumflex" horiz-adv-x="579" unicode="â" d="M149 595l106 131h68l106 -131h-66l-75 67l-75 -67h-64zM255 50q72 0 122.5 39.5t50.5 100.5v50q-76 22 -152 22q-72 0 -111.5 -29t-39.5 -78v-2q0 -47 37.5 -75t92.5 -28zM240 -11q-78 0 -135.5 43t-57.5 118v2q0 80 60 123.5t161 43.5q81 0 159 -22v18q0 69 -40 105 t-114 36t-157 -38l-23 63q94 43 188 43q110 0 167 -57q53 -53 53 -151v-316h-74v78q-68 -89 -187 -89z"/>
<glyph glyph-name="atilde" horiz-adv-x="579" unicode="ã" d="M362 595q-24 0 -72 21q-46 19 -62 19q-19 0 -29.5 -10.5t-22.5 -38.5l-47 13q15 56 37 80.5t58 24.5q22 0 72 -20q44 -20 62 -20q19 0 29.5 10.5t22.5 38.5l47 -13q-15 -56 -37 -80.5t-58 -24.5zM255 50q72 0 122.5 39.5t50.5 100.5v50q-76 22 -152 22q-72 0 -111.5 -29 t-39.5 -78v-2q0 -47 37.5 -75t92.5 -28zM240 -11q-78 0 -135.5 43t-57.5 118v2q0 80 60 123.5t161 43.5q81 0 159 -22v18q0 69 -40 105t-114 36t-157 -38l-23 63q94 43 188 43q110 0 167 -57q53 -53 53 -151v-316h-74v78q-68 -89 -187 -89z"/>
<glyph glyph-name="adieresis" horiz-adv-x="579" unicode="ä" d="M157 595v95h89v-95h-89zM332 595v95h89v-95h-89zM255 50q72 0 122.5 39.5t50.5 100.5v50q-76 22 -152 22q-72 0 -111.5 -29t-39.5 -78v-2q0 -47 37.5 -75t92.5 -28zM240 -11q-78 0 -135.5 43t-57.5 118v2q0 80 60 123.5t161 43.5q81 0 159 -22v18q0 69 -40 105t-114 36 t-157 -38l-23 63q94 43 188 43q110 0 167 -57q53 -53 53 -151v-316h-74v78q-68 -89 -187 -89z"/>
<glyph glyph-name="aring" horiz-adv-x="579" unicode="å" d="M289 629q28 0 48.5 20.5t20.5 48.5t-20.5 48.5t-48.5 20.5t-48.5 -20.5t-20.5 -48.5t20.5 -48.5t48.5 -20.5zM289 593q-45 0 -77 31t-32 74t32 73.5t77 30.5t77 -30.5t32 -73.5t-32 -74t-77 -31zM255 50q72 0 122.5 39.5t50.5 100.5v50q-76 22 -152 22q-72 0 -111.5 -29 t-39.5 -78v-2q0 -47 37.5 -75t92.5 -28zM240 -11q-78 0 -135.5 43t-57.5 118v2q0 80 60 123.5t161 43.5q81 0 159 -22v18q0 69 -40 105t-114 36t-157 -38l-23 63q94 43 188 43q110 0 167 -57q53 -53 53 -151v-316h-74v78q-68 -89 -187 -89z"/>
<glyph glyph-name="ae" horiz-adv-x="953" unicode="æ" d="M251 51q104 0 186 92q-18 45 -21 98q-80 21 -144 21q-70 0 -108.5 -29t-38.5 -78v-2q0 -47 36 -74.5t90 -27.5zM493 287h333q-6 76 -48.5 126t-115.5 50q-68 0 -114.5 -49.5t-54.5 -126.5zM242 -11q-80 0 -137.5 42.5t-57.5 118.5v2q0 80 59.5 123.5t157.5 43.5 q75 0 153 -22v18q0 69 -38.5 105t-110.5 36q-69 0 -152 -38l-23 63q94 43 183 43q151 0 190 -111q31 53 83 84t115 31q111 0 176 -78t65 -195q0 -7 -2 -25h-409q7 -81 58.5 -128t122.5 -47q93 0 163 73l48 -43q-85 -97 -213 -97q-62 0 -116 27.5t-89 76.5 q-99 -103 -226 -103z"/>
<glyph glyph-name="ccedilla" horiz-adv-x="571" unicode="ç" d="M268 -155l-75 34l78 114q-95 16 -156 91t-61 172v2q0 111 76.5 190.5t188.5 79.5q120 0 207 -92l-51 -54q-74 78 -157 78q-78 0 -131.5 -58t-53.5 -142v-2q0 -84 54.5 -142.5t135.5 -58.5q86 0 158 77l49 -46q-84 -94 -196 -99z"/>
<glyph glyph-name="egrave" horiz-adv-x="592" unicode="è" d="M272 595l-114 108l80 37l94 -145h-60zM132 287h333q-6 76 -49 126t-116 50q-67 0 -113.5 -50t-54.5 -126zM312 -12q-109 0 -183.5 75.5t-74.5 193.5v2q0 113 71 191t177 78q111 0 176 -78t65 -195q0 -16 -1 -25h-410q8 -82 59.5 -128.5t122.5 -46.5q93 0 163 73l48 -43 q-87 -97 -213 -97z"/>
<glyph glyph-name="eacute" horiz-adv-x="592" unicode="é" d="M132 287h333q-6 76 -49 126t-116 50q-67 0 -113.5 -50t-54.5 -126zM312 -12q-109 0 -183.5 75.5t-74.5 193.5v2q0 113 71 191t177 78q111 0 176 -78t65 -195q0 -16 -1 -25h-410q8 -82 59.5 -128.5t122.5 -46.5q93 0 163 73l48 -43q-87 -97 -213 -97zM270 595l94 145 l80 -37l-114 -108h-60z"/>
<glyph glyph-name="ecircumflex" horiz-adv-x="592" unicode="ê" d="M132 287h333q-6 76 -49 126t-116 50q-67 0 -113.5 -50t-54.5 -126zM312 -12q-109 0 -183.5 75.5t-74.5 193.5v2q0 113 71 191t177 78q111 0 176 -78t65 -195q0 -16 -1 -25h-410q8 -82 59.5 -128.5t122.5 -46.5q93 0 163 73l48 -43q-87 -97 -213 -97zM161 595l106 131h68 l106 -131h-66l-75 67l-75 -67h-64z"/>
<glyph glyph-name="edieresis" horiz-adv-x="592" unicode="ë" d="M132 287h333q-6 76 -49 126t-116 50q-67 0 -113.5 -50t-54.5 -126zM312 -12q-109 0 -183.5 75.5t-74.5 193.5v2q0 113 71 191t177 78q111 0 176 -78t65 -195q0 -16 -1 -25h-410q8 -82 59.5 -128.5t122.5 -46.5q93 0 163 73l48 -43q-87 -97 -213 -97zM169 595v95h89v-95 h-89zM344 595v95h89v-95h-89z"/>
<glyph glyph-name="igrave" horiz-adv-x="263" unicode="ì" d="M103 595l-114 108l80 37l94 -145h-60zM93 0v517h77v-517h-77z"/>
<glyph glyph-name="iacute" horiz-adv-x="263" unicode="í" d="M93 0v517h77v-517h-77zM101 595l94 145l80 -37l-114 -108h-60z"/>
<glyph glyph-name="icircumflex" horiz-adv-x="263" unicode="î" d="M93 0v517h77v-517h-77zM-8 595l106 131h68l106 -131h-66l-75 67l-75 -67h-64z"/>
<glyph glyph-name="idieresis" horiz-adv-x="263" unicode="ï" d="M93 0v517h77v-517h-77zM0 595v95h89v-95h-89zM175 595v95h89v-95h-89z"/>
<glyph glyph-name="eth" horiz-adv-x="646" unicode="ð" d="M324 57q82 0 135 57t53 142v2q0 83 -55 138t-141 55q-82 0 -132.5 -55t-50.5 -138v-2q0 -83 55 -141t136 -58zM493 685l-86 -36q184 -179 184 -365v-2q0 -129 -75 -211.5t-197 -82.5q-112 0 -188.5 79.5t-76.5 192.5v2q0 110 72.5 182t171.5 72q100 0 179 -72 q-42 85 -139 176l-115 -47l-23 47l95 39q-43 37 -89 71h111l48 -41l105 44z"/>
<glyph glyph-name="ntilde" horiz-adv-x="616" unicode="ñ" d="M384 595q-24 0 -72 21q-46 19 -62 19q-19 0 -29.5 -10.5t-22.5 -38.5l-47 13q15 56 37 80.5t58 24.5q22 0 72 -20q44 -20 62 -20q19 0 29.5 10.5t22.5 38.5l47 -13q-15 -56 -37 -80.5t-58 -24.5zM86 0v517h77v-90q61 101 177 101q92 0 145 -56.5t53 -150.5v-321h-77v302 q0 73 -37.5 114.5t-105.5 41.5q-67 0 -111 -45t-44 -117v-296h-77z"/>
<glyph glyph-name="ograve" horiz-adv-x="646" unicode="ò" d="M294 595l-114 108l80 37l94 -145h-60zM324 57q83 0 136.5 58t53.5 141v2q0 84 -55.5 143t-136.5 59q-82 0 08A1DCCAD0"/>
<glyph glyph-name="oacute" horiz-adv-x="646" unicode="ó" d="M324 57q83 0 136.5 58t53.5 141v2q0 84 -55.5 143t-136.5 59q-82 0 -135.5 -58.5t-53.5 -141.5v-2q0 -84 55 -142.5t136 -58.5zM322 -12q-115 0 -191.5 78.5t-76.5 189.5v2q0 111 77.5 190.5t192.5 79.5t192 -78.5t77 -189.5v-2q0 -111 -78 -190.5t-193 -79.5zM292 595 l94 145l80 -37l-114 -108h-60z"/>
<glyph glyph-name="ocircumflex" horiz-adv-x="646" unicode="ô" d="M324 57q83 0 136.5 58t53.5 141v2q0 84 -55.5 143t-136.5 59q-82 0 -135.5 -58.5t-53.5 -141.5v-2q0 -84 55 -142.5t136 -58.5zM322 -12q-115 0 -191.5 78.5t-76.5 189.5v2q0 111 77.5 190.5t192.5 79.5t192 -78.5t77 -189.5v-2q0 -111 -78 -190.5t-193 -79.5zM183 595 l106 131h68l106 -131h-66l-75 67l-75 -67h-64z"/>
<glyph glyph-name="otilde" horiz-adv-x="646" unicode="õ" d="M395 595q-24 0 -72 21q-46 19 -62 19q-19 0 -29.5 -10.5t-22.5 -38.5l-47 13q15 56 37 80.5t58 24.5q22 0 00CEE8FA26"/>
<glyph glyph-name="odieresis" horiz-adv-x="646" unicode="ö" d="M324 57q83 0 136.5 58t53.5 141v2q0 84 -55.5 143t-136.5 59q-82 0 -135.5 -58.5t-53.5 -141.5v-2q0 -84 55 -142.5t136 -58.5zM322 -12q-115 0 -191.5 78.5t-76.5 189.5v2q0 111 77.5 190.5t192.5 79.5t192 -78.5t77 -189.5v-2q0 -111 -78 -190.5t-193 -79.5zM191 595 v95h89v-95h-89zM366 595v95h89v-95h-89z"/>
<glyph glyph-name="divide" horiz-adv-x="625" unicode="÷" d="M262 102v103h101v-103h-101zM557 317h-489v70h489v-70zM262 499v104h101v-104h-101z"/>
<glyph glyph-name="oslash" horiz-adv-x="646" unicode="ø" d="M131 260q0 -71 39 -126l268 287q-51 40 -116 40q-83 0 -137 -58.5t-54 -142.5zM324 55q84 0 137.5 58.5t53.5 142.5v1q0 72 -39 125l-268 -287q51 -40 116 -40zM530 523h78l-81 -86q66 -75 66 -177v-2q0 -111 -78 -190.5t-193 -79.5q-91 0 -162 53l-44 -46h-77l79 85 q-64 73 -64 176v2q0 111 77.5 190.5t192.5 79.5q90 0 161 -53z"/>
<glyph glyph-name="ugrave" horiz-adv-x="616" unicode="ù" d="M274 595l-114 108l80 37l94 -145h-60zM276 -11q-92 0 -145 56.5t-53 150.5v321h77v-302q0 -73 37.5 -114.5t105.5 -41.5q67 0 111 45t44 117v296h76v-517h-76v90q-63 -101 -177 -101z"/>
<glyph glyph-name="uacute" horiz-adv-x="616" unicode="ú" d="M276 -11q-92 0 -145 56.5t-53 150.5v321h77v-302q0 -73 37.5 -114.5t105.5 -41.5q67 0 111 45t44 117v296h76v-517h-76v90q-63 -101 -177 -101zM272 595l94 145l80 -37l-114 -108h-60z"/>
<glyph glyph-name="ucircumflex" horiz-adv-x="616" unicode="û" d="M276 -11q-92 0 -145 56.5t-53 150.5v321h77v-302q0 -73 37.5 -114.5t105.5 -41.5q67 0 111 45t44 117v296h76v-517h-76v90q-63 -101 -177 -101zM163 595l106 131h68l106 -131h-66l-75 67l-75 -67h-64z"/>
<glyph glyph-name="udieresis" horiz-adv-x="616" unicode="ü" d="M276 -11q-92 0 -145 56.5t-53 150.5v321h77v-302q0 -73 37.5 -114.5t105.5 -41.5q67 0 111 45t44 117v296h76v-517h-76v90q-63 -101 -177 -101zM171 595v95h89v-95h-89zM346 595v95h89v-95h-89z"/>
<glyph glyph-name="yacute" horiz-adv-x="591" unicode="ý" d="M267 595l94 145l80 -37l-114 -108h-60zM307 86l166 431h82l-217 -534q-33 -79 -73 -112.5t-99 -33.5q-56 0 -110 26l26 61q37 -19 81 -19q35 0 59 21.5t47 75.5l-235 515h85z"/>
<glyph glyph-name="thorn" horiz-adv-x="664" unicode="þ" d="M347 58q78 0 130 54t52 145v2q0 89 -53 144.5t-129 55.5q-75 0 -131 -56.5t-56 -142.5v-2q0 -87 56 -143.5t131 -56.5zM86 -160v890h77v-317q78 115 198 115q99 0 173 -73t74 -195v-2q0 -121 -74 -195t-173 -74q-122 0 -198 110v-259h-77z"/>
<glyph glyph-name="OE" horiz-adv-x="1131" unicode="Œ" d="M440 73h138v554h-138q-130 0 -210 -78t-80 -197v-2q0 -119 80 -198t210 -79zM440 0q-163 0 -267.5 99.5t-104.5 248.5v2q0 150 104.5 250t267.5 100h626v-72h-409v-239h364v-72h-364v-245h414v-72h-631z"/>
<glyph glyph-name="oe" horiz-adv-x="1049" unicode="œ" d="M323 57q82 0 135 58t53 141v2q0 84 -55 143t-135 59q-82 0 -135 -58.5t-53 -141.5v-2q0 -84 55 -142.5t135 -58.5zM589 287h333q-6 76 -48.5 126t-115.5 50q-68 0 -114.5 -49.5t-54.5 -126.5zM319 -12q-112 0 -188.5 79t-76.5 189v2q0 111 77.5 190.5t190.5 79.5 q74 0 134 -37.5t92 -99.5q30 63 86 100t126 37q111 0 175.5 -78t64.5 -195q0 -16 -1 -25h-409q7 -81 58.5 -128t122.5 -47q93 0 163 73l48 -43q-85 -97 -212 -97q-72 0 -131.5 37t-91.5 102q-32 -63 -92.5 -101t-135.5 -38z"/>
<glyph glyph-name="Scaron" horiz-adv-x="640" unicode="Š" d="M472 890l-110 -118h-72l-110 118h72l75 -60l75 60h70zM339 -10q-161 0 -286 112l49 58q56 -51 112.5 -75t1028DE57AB8"/>
<glyph glyph-name="scaron" horiz-adv-x="498" unicode="š" d="M257 -10q-56 0 -113.5 20.5t-100.5 55.5l39 55q88 -66 179 -66q47 0 77 22.5t30 59.5v2q0 35 -32.5 54t-96.5 37q-39 11 -62 20t-52 25.5t-43 41.5t-14 59v2q0 66 49.5 107t126.5 41q100 0 186 -57l-35 -58q-77 50 -153 50q-45 0 -72.5 -21t-27.5 -54v-2q0 -14 8 -26 t18 -20t31.5 -17t34.5 -13t41 -13q29 -9 48.5 -16t44 -19.5t39 -27t24.5 -36.5t10 -49v-2q0 -72 -52 -113.5t-132 -41.5zM392 726l-106 -131h-68l-106 131h66l75 -67l75 67h64z"/>
<glyph glyph-name="Ydieresis" horiz-adv-x="716" unicode="Ÿ" d="M218 759v90h93v-90h-93zM405 759v90h93v-90h-93zM318 0v277l-291 423h96l236 -350l238 350h92l-291 -422v-278h-80z"/>
<glyph glyph-name="circumflex" horiz-adv-x="500" unicode="ˆ" d="M110 595l106 131h68l106 -131h-66l-75 67l-75 -67h-64z"/>
<glyph glyph-name="tilde" horiz-adv-x="500" unicode="˜" d="M319 595q-24 0 -72 21q-46 19 -62 19q-19 0 -29.5 -10.5t-22.5 -38.5l-47 13q15 56 37 80.5t58 24.5q22 0 0ECAFEBAAE"/>
<glyph glyph-name="enspace" horiz-adv-x="500" unicode=" "/>
<glyph glyph-name="emspace" horiz-adv-x="1000" unicode=" "/>
<glyph glyph-name="thinspace" horiz-adv-x="133" unicode=" "/>
<glyph glyph-name="endash" horiz-adv-x="528" unicode="–" d="M65 262v77h398v-77h-398z"/>
<glyph glyph-name="emdash" horiz-adv-x="898" unicode="—" d="M65 262v77h768v-77h-768z"/>
<glyph glyph-name="quoteleft" horiz-adv-x="245" unicode="‘" d="M72 478v90q0 60 26 92t84 45l12 -35q-67 -24 -67 -79v-8h37v-105h-92z"/>
<glyph glyph-name="quotesinglbase" horiz-adv-x="245" unicode="‚" d="M58 -122l-12 35q67 25 67 77v10h-36v105h92v-90q0 -60 -26.5 -92t-84.5 -45z"/>
<glyph glyph-name="quotedblleft" horiz-adv-x="445" unicode="“" d="M72 478v90q0 60 26 92t84 45l12 -35q-67 -24 -67 -79v-8h37v-105h-92zM272 478v90q0 60 26 92t84 45l12 -35q-67 -24 -67 -79v-8h37v-105h-92z"/>
<glyph glyph-name="quotedblright" horiz-adv-x="445" unicode="”" d="M63 473l-12 35q67 25 67 77v10h-36v105h92v-90q0 -60 -26.5 -92t-84.5 -45zM263 473l-12 35q67 25 67 77v10h-36v105h92v-90q0 -60 -26.5 -92t-84.5 -45z"/>
<glyph glyph-name="dagger" horiz-adv-x="410" unicode="†" d="M178 238l6 282l-124 -8v55l123 -8l-9 141h62l-9 -141l123 8v-55l-124 8l6 -282h-54z"/>
<glyph glyph-name="daggerdbl" horiz-adv-x="430" unicode="‡" d="M184 0l9 141l-123 -8v55l124 -8l-6 170l6 170l-124 -8v55l123 -8l-9 141h62l-9 -141l123 8v-55l-124 8l6 -170l-6 -170l124 8v-55l-123 8l9 -141h-62z"/>
<glyph glyph-name="ellipsis" horiz-adv-x="723" unicode="…" d="M77 0v103h89v-103h-89zM317 0v103h89v-103h-89zM557 0v103h90v-103h-90z"/>
<glyph glyph-name="perthousand" horiz-adv-x="1211" unicode="‰" d="M999 -8q-69 0 -113 52t-44 125v2q0 73 45 126t114 53t113.5 -52t44.5 -125v-2q0 -73 -45 -126t-115 -53zM10602424AC6"/>
<glyph glyph-name="guilsinglleft" horiz-adv-x="328" unicode="‹" d="M213 42l-165 213v8l165 212l56 -32l-133 -183l133 -186z"/>
<glyph glyph-name="guilsinglright" horiz-adv-x="328" unicode="›" d="M115 42l-56 32l132 184l-132 185l56 32l164 -212v-8z"/>
<glyph glyph-name="fraction" horiz-adv-x="100" unicode="⁄" d="M-215 0l248 359l228 341h54l-248 -359l-228 -341h-54z"/>
<glyph glyph-name="Euro" horiz-adv-x="720" unicode="€" d="M666 575l-60 -43q-40 56 -81.5 82.5t-102.5 26.5q-66 0 -116.5 -46.5t-74.5 -124.5h257v-62h-271q-3 -28 -3 -57q0 -35 2 -51h272v-63h-260q23 -82 77.5 -130t127.5 -48q56 0 97.5 29t80.5 86l57 -40q-46 -69 -102.5 -107.5t-135.5 -38.5q-105 0 -180.5 68t-102.5 181 h-91v63h81q-2 15 -2 49q0 31 3 59h-82v62h94q28 108 102 175t173 67q149 0 241 -137z"/>
<glyph glyph-name="trademark" horiz-adv-x="690" unicode="™" d="M125 392v266h-99v42h242v-42h-99v-266h-44zM336 392v308h47l110 -169l109 169h46v-308h-43v236l-110 -167h-6l-109 167v-236h-44z"/>
<glyph glyph-name="minus" horiz-adv-x="625" unicode="−" d="M557 315h-489v74h489v-74z"/>
<hkern k="10" u1="$" u2="7"/>
<hkern k="-30" u1="(" u2="j"/>
<hkern k="20" u1="../../../../../default.htm" u2="9"/>
<hkern k="15" u1="../../../../../default.htm" u2="8"/>
<hkern k="10" u1="../../../../../default.htm" u2="7"/>
<hkern k="35" u1="../../../../../default.htm" u2="6"/>
<hkern k="20" u1="../../../../../default.htm" u2="5"/>
<hkern k="95" u1="../../../../../default.htm" u2="4"/>
<hkern k="10" u1="../../../../../default.htm" u2="3"/>
<hkern k="20" u1="../../../../../default.htm" u2="2"/>
<hkern k="-10" u1="../../../../../default.htm" u2="1"/>
<hkern k="35" u1="../../../../../default.htm" u2="0"/>
<hkern k="180" u1="../../../../../default.htm" u2="../../../../../default.htm"/>
<hkern k="29" u1="0" u2="7"/>
<hkern k="10" u1="0" u2="3"/>
<hkern k="10" u1="0" u2="2"/>
<hkern k="5" u1="0" u2="1"/>
<hkern k="35" u1="0" u2="../../../../../default.htm"/>
<hkern k="12" u1="2" u2="7"/>
<hkern k="26" u1="2" u2="4"/>
<hkern k="5" u1="3" u2="9"/>
<hkern k="24" u1="3" u2="7"/>
<hkern k="5" u1="3" u2="5"/>
<hkern k="10" u1="3" u2="../../../../../default.htm"/>
<hkern k="10" u1="4" u2="9"/>
<hkern k="37" u1="4" u2="7"/>
<hkern k="20" u1="4" u2="1"/>
<hkern k="20" u1="4" u2="../../../../../default.htm"/>
<hkern k="5" u1="5" u2="9"/>
<hkern k="30" u1="5" u2="7"/>
<hkern k="5" u1="5" u2="3"/>
<hkern k="10" u1="5" u2="2"/>
<hkern k="20" u1="5" u2="../../../../../default.htm"/>
<hkern k="10" u1="6" u2="9"/>
<hkern k="22" u1="6" u2="7"/>
<hkern k="10" u1="6" u2="3"/>
<hkern k="17" u1="6" u2="1"/>
<hkern k="10" u1="6" u2="../../../../../default.htm"/>
<hkern k="15" u1="7" u2="9"/>
<hkern k="10" u1="7" u2="8"/>
<hkern k="20" u1="7" u2="6"/>
<hkern k="25" u1="7" u2="5"/>
<hkern k="85" u1="7" u2="4"/>
<hkern k="20" u1="7" u2="3"/>
<hkern k="15" u1="7" u2="2"/>
<hkern k="-10" u1="7" u2="1"/>
<hkern k="20" u1="7" u2="0"/>
<hkern k="140" u1="7" u2="../../../../../default.htm"/>
<hkern k="5" u1="8" u2="9"/>
<hkern k="10" u1="8" u2="7"/>
<hkern k="21" u1="9" u2="7"/>
<hkern k="5" u1="9" u2="5"/>
<hkern k="10" u1="9" u2="3"/>
<hkern k="10" u1="9" u2="2"/>
<hkern k="25" u1="9" u2="../../../../../default.htm"/>
<hkern k="-10" u1="F" u2="?"/>
<hkern k="70" u1="F" u2="../../../../../default.htm"/>
<hkern k="26" u1="F" u2="&amp;"/>
<hkern k="20" u1="Q" u2="?"/>
<hkern k="10" u1="Q" u2=")"/>
<hkern k="20" u1="V" u2="j"/>
<hkern k="120" u1="V" u2="../../../../../default.htm"/>
<hkern k="51" u1="V" u2="&amp;"/>
<hkern k="-30" u1="[" u2="j"/>
<hkern k="-3" u1="j" u2="../../../../../default.htm"/>
<hkern k="-5" u1="q" u2="../../../../../default.htm"/>
<hkern k="-35" u1="{" u2="j"/>
<hkern k="15" u1="£" u2="4"/>
<hkern k="20" u1="¥" u2="4"/>
<hkern k="15" u1="§" u2="7"/>
<hkern k="45" u1="‚" u2="ý"/>
<hkern k="45" u1="‚" u2="y"/>
<hkern k="-20" u1="€" u2="1"/>
<hkern k="5" g2="question" g1="B"/>
<hkern k="-4" g2="ampersand" g1="B"/>
<hkern k="10" g2="v" g1="B"/>
<hkern k="10" g2="w" g1="B"/>
<hkern k="10" g2="y,yacute" g1="B"/>
<hkern k="17" g2="T" g1="B"/>
<hkern k="20" g2="V" g1="B"/>
<hkern k="15" g2="W" g1="B"/>
<hkern k="30" g2="Y,Yacute,Ydieresis" g1="B"/>
<hkern k="20" g2="X" g1="B"/>
<hkern k="20" g2="question" g1="D,Eth"/>
<hkern k="20" g2="braceright" g1="D,Eth"/>
<hkern k="20" g2="bracketright" g1="D,Eth"/>
<hkern k="30" g2="parenright" g1="D,Eth"/>
<hkern k="40" g2="slash" g1="D,Eth"/>
<hkern k="46" g2="AE" g1="D,Eth"/>
<hkern k="46" g2="A,Agrave,Aacute,Acircumflex,Atilde,Adieresis,Aring" g1="D,Eth"/>
<hkern k="40" g2="J" g1="D,Eth"/>
<hkern k="40" g2="comma,period,ellipsis" g1="D,Eth"/>
<hkern k="44" g2="Z" g1="D,Eth"/>
<hkern k="51" g2="T" g1="D,Eth"/>
<hkern k="45" g2="V" g1="D,Eth"/>
<hkern k="36" g2="W" g1="D,Eth"/>
<hkern k="65" g2="Y,Yacute,Ydieresis" g1="D,Eth"/>
<hkern k="10" g2="S,Scaron" g1="D,Eth"/>
<hkern k="55" g2="X" g1="D,Eth"/>
<hkern k="10" g2="x" g1="D,Eth"/>
<hkern k="10" g2="question" g1="G"/>
<hkern k="-10" g2="a,agrave,aacute,acircumflex,atilde,adieresis,aring,ae" g1="G"/>
<hkern k="5" g2="v" g1="G"/>
<hkern k="5" g2="y,yacute" g1="G"/>
<hkern k="17" g2="T" g1="G"/>
<hkern k="21" g2="V" g1="G"/>
<hkern k="16" g2="W" g1="G"/>
<hkern k="30" g2="Y,Yacute,Ydieresis" g1="G"/>
<hkern k="10" g2="X" g1="G"/>
<hkern k="7" g2="ampersand" g1="K"/>
<hkern k="5" g2="AE" g1="K"/>
<hkern k="5" g2="A,Agrave,Aacute,Acircumflex,Atilde,Adieresis,Aring" g1="K"/>
<hkern k="51" g2="C,G,O,Q,Ccedilla,Ograve,Oacute,Ocircumflex,Otilde,Odieresis,Oslash,OE" g1="K"/>
<hkern k="25" g2="d,g,q" g1="K"/>
<hkern k="30" g2="c,e,o,ccedilla,egrave,eacute,ecircumflex,edieresis,eth,ograve,oacute,ocircumflex,otilde,odieresis,oslash,oe" g1="K"/>
<hkern k="10" g2="a,agrave,aacute,acircumflex,atilde,adieresis,aring,ae" g1="K"/>
<hkern k="60" g2="v" g1="K"/>
<hkern k="50" g2="w" g1="K"/>
<hkern k="50" g2="y,yacute" g1="K"/>
<hkern k="10" g2="T" g1="K"/>
<hkern k="30" g2="V" g1="K"/>
<hkern k="30" g2="W" g1="K"/>
<hkern k="37" g2="Y,Yacute,Ydieresis" g1="K"/>
<hkern k="10" g2="S,Scaron" g1="K"/>
<hkern k="50" g2="hyphen,endash,emdash" g1="K"/>
<hkern k="20" g2="guillemotleft,guilsinglleft" g1="K"/>
<hkern k="20" g2="f" g1="K"/>
<hkern k="25" g2="t" g1="K"/>
<hkern k="20" g2="u,ugrave,uacute,ucircumflex,udieresis" g1="K"/>
<hkern k="15" g2="U,Ugrave,Uacute,Ucircumflex,Udieresis" g1="K"/>
<hkern k="80" g2="asterisk" g1="L"/>
<hkern k="60" g2="question" g1="L"/>
<hkern k="7" g2="ampersand" g1="L"/>
<hkern k="40" g2="quotedblright" g1="L"/>
<hkern k="40" g2="C,G,O,Q,Ccedilla,Ograve,Oacute,Ocircumflex,Otilde,Odieresis,Oslash,OE" g1="L"/>
<hkern k="5" g2="d,g,q" g1="L"/>
<hkern k="10" g2="c,e,o,ccedilla,egrave,eacute,ecircumflex,edieresis,eth,ograve,oacute,ocircumflex,otilde,odieresis,oslash,oe" g1="L"/>
<hkern k="60" g2="v" g1="L"/>
<hkern k="50" g2="w" g1="L"/>
<hkern k="60" g2="y,yacute" g1="L"/>
<hkern k="100" g2="T" g1="L"/>
<hkern k="115" g2="V" g1="L"/>
<hkern k="100" g2="W" g1="L"/>
<hkern k="130" g2="Y,Yacute,Ydieresis" g1="L"/>
<hkern k="40" g2="hyphen,endash,emdash" g1="L"/>
<hkern k="20" g2="f" g1="L"/>
<hkern k="20" g2="t" g1="L"/>
<hkern k="20" g2="U,Ugrave,Uacute,Ucircumflex,Udieresis" g1="L"/>
<hkern k="40" g2="quoteleft,quotedblleft" g1="L"/>
<hkern k="90" g2="registered,trademark" g1="L"/>
<hkern k="15" g2="ampersand" g1="P"/>
<hkern k="60" g2="slash" g1="P"/>
<hkern k="70" g2="AE" g1="P"/>
<hkern k="70" g2="A,Agrave,Aacute,Acircumflex,Atilde,Adieresis,Aring" g1="P"/>
<hkern k="100" g2="J" g1="P"/>
<hkern k="100" g2="comma,period,ellipsis" g1="P"/>
<hkern k="-20" g2="quotedblright" g1="P"/>
<hkern k="15" g2="Z" g1="P"/>
<hkern k="5" g2="c,e,o,ccedilla,egrave,eacute,ecircumflex,edieresis,eth,ograve,oacute,ocircumflex,otilde,odieresis,oslash,oe" g1="P"/>
<hkern k="10" g2="a,agrave,aacute,acircumflex,atilde,adieresis,aring,ae" g1="P"/>
<hkern k="-10" g2="v" g1="P"/>
<hkern k="-10" g2="w" g1="P"/>
<hkern k="-10" g2="y,yacute" g1="P"/>
<hkern k="10" g2="V" g1="P"/>
<hkern k="5" g2="W" g1="P"/>
<hkern k="10" g2="Y,Yacute,Ydieresis" g1="P"/>
<hkern k="30" g2="X" g1="P"/>
<hkern k="-15" g2="f" g1="P"/>
<hkern k="-15" g2="t" g1="P"/>
<hkern k="30" g2="one" g1="hyphen,endash,emdash"/>
<hkern k="40" g2="seven" g1="hyphen,endash,emdash"/>
<hkern k="10" g2="three" g1="hyphen,endash,emdash"/>
<hkern k="40" g2="AE" g1="hyphen,endash,emdash"/>
<hkern k="40" g2="A,Agrave,Aacute,Acircumflex,Atilde,Adieresis,Aring" g1="hyphen,endash,emdash"/>
<hkern k="30" g2="Z" g1="hyphen,endash,emdash"/>
<hkern k="15" g2="v" g1="hyphen,endash,emdash"/>
<hkern k="10" g2="w" g1="hyphen,endash,emdash"/>
<hkern k="15" g2="y,yacute" g1="hyphen,endash,emdash"/>
<hkern k="10" g2="z" g1="hyphen,endash,emdash"/>
<hkern k="90" g2="T" g1="hyphen,endash,emdash"/>
<hkern k="40" g2="V" g1="hyphen,endash,emdash"/>
<hkern k="35" g2="W" g1="hyphen,endash,emdash"/>
<hkern k="80" g2="Y,Yacute,Ydieresis" g1="hyphen,endash,emdash"/>
<hkern k="50" g2="X" g1="hyphen,endash,emdash"/>
<hkern k="30" g2="x" g1="hyphen,endash,emdash"/>
<hkern k="50" g2="one" g1="comma,period,quotesinglbase,ellipsis"/>
<hkern k="20" g2="seven" g1="comma,period,quotesinglbase,ellipsis"/>
<hkern k="-4" g2="j" g1="comma,period,quotesinglbase,ellipsis"/>
<hkern k="20" g2="zero" g1="comma,period,quotesinglbase,ellipsis"/>
<hkern k="40" g2="quotedblright" g1="comma,period,quotesinglbase,ellipsis"/>
<hkern k="40" g2="C,G,O,Q,Ccedilla,Ograve,Oacute,Ocircumflex,Otilde,Odieresis,Oslash,OE" g1="comma,period,quotesinglbase,ellipsis"/>
<hkern k="10" g2="d,g,q" g1="comma,period,quotesinglbase,ellipsis"/>
<hkern k="20" g2="c,e,o,ccedilla,egrave,eacute,ecircumflex,edieresis,eth,ograve,oacute,ocircumflex,otilde,odieresis,oslash,oe" g1="comma,period,quotesinglbase,ellipsis"/>
<hkern k="85" g2="v" g1="comma,period,quotesinglbase,ellipsis"/>
<hkern k="70" g2="w" g1="comma,period,quotesinglbase,ellipsis"/>
<hkern k="60" g2="y,yacute" g1="comma,period,quotesinglbase,ellipsis"/>
<hkern k="100" g2="T" g1="comma,period,quotesinglbase,ellipsis"/>
<hkern k="120" g2="V" g1="comma,period,quotesinglbase,ellipsis"/>
<hkern k="100" g2="W" g1="comma,period,quotesinglbase,ellipsis"/>
<hkern k="130" g2="Y,Yacute,Ydieresis" g1="comma,period,quotesinglbase,ellipsis"/>
<hkern k="15" g2="f" g1="comma,period,quotesinglbase,ellipsis"/>
<hkern k="25" g2="t" g1="comma,period,quotesinglbase,ellipsis"/>
<hkern k="15" g2="U,Ugrave,Uacute,Ucircumflex,Udieresis" g1="comma,period,quotesinglbase,ellipsis"/>
<hkern k="20" g2="quoteleft,quotedblleft" g1="comma,period,quotesinglbase,ellipsis"/>
<hkern k="50" g2="questiondown" g1="quoteleft,quotedblleft"/>
<hkern k="90" g2="AE" g1="quoteleft,quotedblleft"/>
<hkern k="90" g2="A,Agrave,Aacute,Acircumflex,Atilde,Adieresis,Aring" g1="quoteleft,quotedblleft"/>
<hkern k="80" g2="J" g1="quoteleft,quotedblleft"/>
<hkern k="15" g2="d,g,q" g1="quoteleft,quotedblleft"/>
<hkern k="15" g2="c,e,o,ccedilla,egrave,eacute,ecircumflex,edieresis,eth,ograve,oacute,ocircumflex,otilde,odieresis,oslash,oe" g1="quoteleft,quotedblleft"/>
<hkern k="10" g2="a,agrave,aacute,acircumflex,atilde,adieresis,aring,ae" g1="quoteleft,quotedblleft"/>
<hkern k="10" g2="s,scaron" g1="quoteleft,quotedblleft"/>
<hkern k="10" g2="z" g1="quoteleft,quotedblleft"/>
<hkern k="20" g2="question" g1="O,Ograve,Oacute,Ocircumflex,Otilde,Odieresis,Oslash"/>
<hkern k="20" g2="braceright" g1="O,Ograve,Oacute,Ocircumflex,Otilde,Odieresis,Oslash"/>
<hkern k="20" g2="bracketright" g1="O,Ograve,Oacute,Ocircumflex,Otilde,Odieresis,Oslash"/>
<hkern k="30" g2="parenright" g1="O,Ograve,Oacute,Ocircumflex,Otilde,Odieresis,Oslash"/>
<hkern k="40" g2="slash" g1="O,Ograve,Oacute,Ocircumflex,Otilde,Odieresis,Oslash"/>
<hkern k="41" g2="AE" g1="O,Ograve,Oacute,Ocircumflex,Otilde,Odieresis,Oslash"/>
<hkern k="41" g2="A,Agrave,Aacute,Acircumflex,Atilde,Adieresis,Aring" g1="O,Ograve,Oacute,Ocircumflex,Otilde,Odieresis,Oslash"/>
<hkern k="30" g2="J" g1="O,Ograve,Oacute,Ocircumflex,Otilde,Odieresis,Oslash"/>
<hkern k="40" g2="comma,period,ellipsis" g1="O,Ograve,Oacute,Ocircumflex,Otilde,Odieresis,Oslash"/>
<hkern k="39" g2="Z" g1="O,Ograve,Oacute,Ocircumflex,Otilde,Odieresis,Oslash"/>
<hkern k="48" g2="T" g1="O,Ograve,Oacute,Ocircumflex,Otilde,Odieresis,Oslash"/>
<hkern k="41" g2="V" g1="O,Ograve,Oacute,Ocircumflex,Otilde,Odieresis,Oslash"/>
<hkern k="36" g2="W" g1="O,Ograve,Oacute,Ocircumflex,Otilde,Odieresis,Oslash"/>
<hkern k="60" g2="Y,Yacute,Ydieresis" g1="O,Ograve,Oacute,Ocircumflex,Otilde,Odieresis,Oslash"/>
<hkern k="5" g2="S,Scaron" g1="O,Ograve,Oacute,Ocircumflex,Otilde,Odieresis,Oslash"/>
<hkern k="50" g2="X" g1="O,Ograve,Oacute,Ocircumflex,Otilde,Odieresis,Oslash"/>
<hkern k="5" g2="x" g1="O,Ograve,Oacute,Ocircumflex,Otilde,Odieresis,Oslash"/>
<hkern k="10" g2="question" g1="S,Scaron"/>
<hkern k="15" g2="AE" g1="S,Scaron"/>
<hkern k="15" g2="A,Agrave,Aacute,Acircumflex,Atilde,Adieresis,Aring" g1="S,Scaron"/>
<hkern k="10" g2="Z" g1="S,Scaron"/>
<hkern k="15" g2="v" g1="S,Scaron"/>
<hkern k="10" g2="w" g1="S,Scaron"/>
<hkern k="15" g2="y,yacute" g1="S,Scaron"/>
<hkern k="5" g2="z" g1="S,Scaron"/>
<hkern k="15" g2="T" g1="S,Scaron"/>
<hkern k="30" g2="V" g1="S,Scaron"/>
<hkern k="25" g2="W" g1="S,Scaron"/>
<hkern k="30" g2="Y,Yacute,Ydieresis" g1="S,Scaron"/>
<hkern k="10" g2="S,Scaron" g1="S,Scaron"/>
<hkern k="25" g2="X" g1="S,Scaron"/>
<hkern k="15" g2="x" g1="S,Scaron"/>
<hkern k="5" g2="f" g1="S,Scaron"/>
<hkern k="5" g2="t" g1="S,Scaron"/>
<hkern k="63" g2="ampersand" g1="T"/>
<hkern k="90" g2="slash" g1="T"/>
<hkern k="32" g2="j" g1="T"/>
<hkern k="90" g2="AE" g1="T"/>
<hkern k="90" g2="A,Agrave,Aacute,Acircumflex,Atilde,Adieresis,Aring" g1="T"/>
<hkern k="110" g2="J" g1="T"/>
<hkern k="70" g2="guillemotright,guilsinglright" g1="T"/>
<hkern k="100" g2="comma,period,ellipsis" g1="T"/>
<hkern k="48" g2="C,G,O,Q,Ccedilla,Ograve,Oacute,Ocircumflex,Otilde,Odieresis,Oslash,OE" g1="T"/>
<hkern k="17" g2="Z" g1="T"/>
<hkern k="117" g2="d,g,q" g1="T"/>
<hkern k="127" g2="c,e,o,ccedilla,egrave,eacute,ecircumflex,edieresis,eth,ograve,oacute,ocircumflex,otilde,odieresis,oslash,oe" g1="T"/>
<hkern k="127" g2="a,agrave,aacute,acircumflex,atilde,adieresis,aring,ae" g1="T"/>
<hkern k="108" g2="s,scaron" g1="T"/>
<hkern k="87" g2="v" g1="T"/>
<hkern k="84" g2="w" g1="T"/>
<hkern k="87" g2="y,yacute" g1="T"/>
<hkern k="102" g2="z" g1="T"/>
<hkern k="15" g2="S,Scaron" g1="T"/>
<hkern k="87" g2="x" g1="T"/>
<hkern k="39" g2="colon,semicolon" g1="T"/>
<hkern k="90" g2="hyphen,endash,emdash" g1="T"/>
<hkern k="90" g2="guillemotleft,guilsinglleft" g1="T"/>
<hkern k="16" g2="b,h,k,l" g1="T"/>
<hkern k="89" g2="m,n,p,r,ntilde" g1="T"/>
<hkern k="45" g2="f" g1="T"/>
<hkern k="32" g2="i,igrave,iacute,icircumflex,idieresis" g1="T"/>
<hkern k="42" g2="t" g1="T"/>
<hkern k="87" g2="u,ugrave,uacute,ucircumflex,udieresis" g1="T"/>
<hkern k="3" g2="Eth" g1="T"/>
<hkern k="15" g2="slash" g1="U,Ugrave,Uacute,Ucircumflex,Udieresis"/>
<hkern k="25" g2="AE" g1="U,Ugrave,Uacute,Ucircumflex,Udieresis"/>
<hkern k="25" g2="A,Agrave,Aacute,Acircumflex,Atilde,Adieresis,Aring" g1="U,Ugrave,Uacute,Ucircumflex,Udieresis"/>
<hkern k="20" g2="J" g1="U,Ugrave,Uacute,Ucircumflex,Udieresis"/>
<hkern k="15" g2="comma,period,ellipsis" g1="U,Ugrave,Uacute,Ucircumflex,Udieresis"/>
<hkern k="10" g2="X" g1="U,Ugrave,Uacute,Ucircumflex,Udieresis"/>
<hkern k="5" g2="x" g1="U,Ugrave,Uacute,Ucircumflex,Udieresis"/>
<hkern k="41" g2="ampersand" g1="W"/>
<hkern k="100" g2="slash" g1="W"/>
<hkern k="15" g2="j" g1="W"/>
<hkern k="90" g2="AE" g1="W"/>
<hkern k="90" g2="A,Agrave,Aacute,Acircumflex,Atilde,Adieresis,Aring" g1="W"/>
<hkern k="105" g2="J" g1="W"/>
<hkern k="35" g2="guillemotright,guilsinglright" g1="W"/>
<hkern k="100" g2="comma,period,ellipsis" g1="W"/>
<hkern k="36" g2="C,G,O,Q,Ccedilla,Ograve,Oacute,Ocircumflex,Otilde,Odieresis,Oslash,OE" g1="W"/>
<hkern k="10" g2="Z" g1="W"/>
<hkern k="60" g2="d,g,q" g1="W"/>
<hkern k="65" g2="c,e,o,ccedilla,egrave,eacute,ecircumflex,edieresis,eth,ograve,oacute,ocircumflex,otilde,odieresis,oslash,oe" g1="W"/>
<hkern k="70" g2="a,agrave,aacute,acircumflex,atilde,adieresis,aring,ae" g1="W"/>
<hkern k="60" g2="s,scaron" g1="W"/>
<hkern k="35" g2="v" g1="W"/>
<hkern k="35" g2="w" g1="W"/>
<hkern k="35" g2="y,yacute" g1="W"/>
<hkern k="55" g2="z" g1="W"/>
<hkern k="10" g2="V" g1="W"/>
<hkern k="10" g2="W" g1="W"/>
<hkern k="20" g2="Y,Yacute,Ydieresis" g1="W"/>
<hkern k="20" g2="S,Scaron" g1="W"/>
<hkern k="15" g2="X" g1="W"/>
<hkern k="40" g2="x" g1="W"/>
<hkern k="15" g2="colon,semicolon" g1="W"/>
<hkern k="35" g2="hyphen,endash,emdash" g1="W"/>
<hkern k="50" g2="guillemotleft,guilsinglleft" g1="W"/>
<hkern k="10" g2="b,h,k,l" g1="W"/>
<hkern k="35" g2="m,n,p,r,ntilde" g1="W"/>
<hkern k="30" g2="f" g1="W"/>
<hkern k="15" g2="i,igrave,iacute,icircumflex,idieresis" g1="W"/>
<hkern k="25" g2="t" g1="W"/>
<hkern k="35" g2="u,ugrave,uacute,ucircumflex,udieresis" g1="W"/>
<hkern k="15" g2="question" g1="X"/>
<hkern k="10" g2="ampersand" g1="X"/>
<hkern k="10" g2="j" g1="X"/>
<hkern k="5" g2="AE" g1="X"/>
<hkern k="5" g2="A,Agrave,Aacute,Acircumflex,Atilde,Adieresis,Aring" g1="X"/>
<hkern k="10" g2="J" g1="X"/>
<hkern k="20" g2="guillemotright,guilsinglright" g1="X"/>
<hkern k="50" g2="C,G,O,Q,Ccedilla,Ograve,Oacute,Ocircumflex,Otilde,Odieresis,Oslash,OE" g1="X"/>
<hkern k="40" g2="d,g,q" g1="X"/>
<hkern k="45" g2="c,e,o,ccedilla,egrave,eacute,ecircumflex,edieresis,eth,ograve,oacute,ocircumflex,otilde,odieresis,oslash,oe" g1="X"/>
<hkern k="10" g2="a,agrave,aacute,acircumflex,atilde,adieresis,aring,ae" g1="X"/>
<hkern k="50" g2="v" g1="X"/>
<hkern k="40" g2="w" g1="X"/>
<hkern k="40" g2="y,yacute" g1="X"/>
<hkern k="20" g2="V" g1="X"/>
<hkern k="15" g2="W" g1="X"/>
<hkern k="23" g2="Y,Yacute,Ydieresis" g1="X"/>
<hkern k="30" g2="S,Scaron" g1="X"/>
<hkern k="50" g2="hyphen,endash,emdash" g1="X"/>
<hkern k="50" g2="guillemotleft,guilsinglleft" g1="X"/>
<hkern k="10" g2="b,h,k,l" g1="X"/>
<hkern k="20" g2="f" g1="X"/>
<hkern k="10" g2="i,igrave,iacute,icircumflex,idieresis" g1="X"/>
<hkern k="20" g2="t" g1="X"/>
<hkern k="20" g2="u,ugrave,uacute,ucircumflex,udieresis" g1="X"/>
<hkern k="10" g2="U,Ugrave,Uacute,Ucircumflex,Udieresis" g1="X"/>
<hkern k="4" g2="Eth" g1="X"/>
<hkern k="66" g2="ampersand" g1="Y,Yacute,Ydieresis"/>
<hkern k="110" g2="slash" g1="Y,Yacute,Ydieresis"/>
<hkern k="20" g2="j" g1="Y,Yacute,Ydieresis"/>
<hkern k="110" g2="AE" g1="Y,Yacute,Ydieresis"/>
<hkern k="110" g2="A,Agrave,Aacute,Acircumflex,Atilde,Adieresis,Aring" g1="Y,Yacute,Ydieresis"/>
<hkern k="130" g2="J" g1="Y,Yacute,Ydieresis"/>
<hkern k="75" g2="guillemotright,guilsinglright" g1="Y,Yacute,Ydieresis"/>
<hkern k="130" g2="comma,period,ellipsis" g1="Y,Yacute,Ydieresis"/>
<hkern k="60" g2="C,G,O,Q,Ccedilla,Ograve,Oacute,Ocircumflex,Otilde,Odieresis,Oslash,OE" g1="Y,Yacute,Ydieresis"/>
<hkern k="10" g2="Z" g1="Y,Yacute,Ydieresis"/>
<hkern k="105" g2="d,g,q" g1="Y,Yacute,Ydieresis"/>
<hkern k="110" g2="c,e,o,ccedilla,egrave,eacute,ecircumflex,edieresis,eth,ograve,oacute,ocircumflex,otilde,odieresis,oslash,oe" g1="Y,Yacute,Ydieresis"/>
<hkern k="100" g2="a,agrave,aacute,acircumflex,atilde,adieresis,aring,ae" g1="Y,Yacute,Ydieresis"/>
<hkern k="100" g2="s,scaron" g1="Y,Yacute,Ydieresis"/>
<hkern k="60" g2="v" g1="Y,Yacute,Ydieresis"/>
<hkern k="55" g2="w" g1="Y,Yacute,Ydieresis"/>
<hkern k="60" g2="y,yacute" g1="Y,Yacute,Ydieresis"/>
<hkern k="80" g2="z" g1="Y,Yacute,Ydieresis"/>
<hkern k="20" g2="V" g1="Y,Yacute,Ydieresis"/>
<hkern k="20" g2="W" g1="Y,Yacute,Ydieresis"/>
<hkern k="5" g2="Y,Yacute,Ydieresis" g1="Y,Yacute,Ydieresis"/>
<hkern k="35" g2="S,Scaron" g1="Y,Yacute,Ydieresis"/>
<hkern k="23" g2="X" g1="Y,Yacute,Ydieresis"/>
<hkern k="70" g2="x" g1="Y,Yacute,Ydieresis"/>
<hkern k="40" g2="colon,semicolon" g1="Y,Yacute,Ydieresis"/>
<hkern k="80" g2="hyphen,endash,emdash" g1="Y,Yacute,Ydieresis"/>
<hkern k="100" g2="guillemotleft,guilsinglleft" g1="Y,Yacute,Ydieresis"/>
<hkern k="7" g2="b,h,k,l" g1="Y,Yacute,Ydieresis"/>
<hkern k="75" g2="m,n,p,r,ntilde" g1="Y,Yacute,Ydieresis"/>
<hkern k="40" g2="f" g1="Y,Yacute,Ydieresis"/>
<hkern k="20" g2="i,igrave,iacute,icircumflex,idieresis" g1="Y,Yacute,Ydieresis"/>
<hkern k="30" g2="t" g1="Y,Yacute,Ydieresis"/>
<hkern k="75" g2="u,ugrave,uacute,ucircumflex,udieresis" g1="Y,Yacute,Ydieresis"/>
<hkern k="4" g2="Eth" g1="Y,Yacute,Ydieresis"/>
<hkern k="11" g2="ampersand" g1="Z"/>
<hkern k="39" g2="C,G,O,Q,Ccedilla,Ograve,Oacute,Ocircumflex,Otilde,Odieresis,Oslash,OE" g1="Z"/>
<hkern k="10" g2="Z" g1="Z"/>
<hkern k="20" g2="d,g,q" g1="Z"/>
<hkern k="25" g2="c,e,o,ccedilla,egrave,eacute,ecircumflex,edieresis,eth,ograve,oacute,ocircumflex,otilde,odieresis,oslash,oe" g1="Z"/>
<hkern k="20" g2="v" g1="Z"/>
<hkern k="15" g2="w" g1="Z"/>
<hkern k="15" g2="y,yacute" g1="Z"/>
<hkern k="10" g2="S,Scaron" g1="Z"/>
<hkern k="30" g2="hyphen,endash,emdash" g1="Z"/>
<hkern k="20" g2="guillemotleft,guilsinglleft" g1="Z"/>
<hkern k="10" g2="f" g1="Z"/>
<hkern k="15" g2="asterisk" g1="h,m,n,ntilde"/>
<hkern k="30" g2="question" g1="h,m,n,ntilde"/>
<hkern k="20" g2="v" g1="h,m,n,ntilde"/>
<hkern k="15" g2="w" g1="h,m,n,ntilde"/>
<hkern k="15" g2="y,yacute" g1="h,m,n,ntilde"/>
<hkern k="15" g2="asterisk" g1="b,p,thorn"/>
<hkern k="35" g2="question" g1="b,p,thorn"/>
<hkern k="15" g2="braceright" g1="b,p,thorn"/>
<hkern k="20" g2="bracketright" g1="b,p,thorn"/>
<hkern k="30" g2="parenright" g1="b,p,thorn"/>
<hkern k="5" g2="guillemotright,guilsinglright" g1="b,p,thorn"/>
<hkern k="10" g2="comma,period,ellipsis" g1="b,p,thorn"/>
<hkern k="25" g2="v" g1="b,p,thorn"/>
<hkern k="20" g2="w" g1="b,p,thorn"/>
<hkern k="25" g2="y,yacute" g1="b,p,thorn"/>
<hkern k="15" g2="z" g1="b,p,thorn"/>
<hkern k="30" g2="x" g1="b,p,thorn"/>
<hkern k="10" g2="quoteleft,quotedblleft" g1="b,p,thorn"/>
<hkern k="20" g2="asterisk" g1="o,ograve,oacute,ocircumflex,otilde,odieresis,oslash"/>
<hkern k="50" g2="question" g1="o,ograve,oacute,ocircumflex,otilde,odieresis,oslash"/>
<hkern k="15" g2="braceright" g1="o,ograve,oacute,ocircumflex,otilde,odieresis,oslash"/>
<hkern k="20" g2="bracketright" g1="o,ograve,oacute,ocircumflex,otilde,odieresis,oslash"/>
<hkern k="30" g2="parenright" g1="o,ograve,oacute,ocircumflex,otilde,odieresis,oslash"/>
<hkern k="10" g2="guillemotright,guilsinglright" g1="o,ograve,oacute,ocircumflex,otilde,odieresis,oslash"/>
<hkern k="20" g2="comma,period,ellipsis" g1="o,ograve,oacute,ocircumflex,otilde,odieresis,oslash"/>
<hkern k="30" g2="v" g1="o,ograve,oacute,ocircumflex,otilde,odieresis,oslash"/>
<hkern k="25" g2="w" g1="o,ograve,oacute,ocircumflex,otilde,odieresis,oslash"/>
<hkern k="30" g2="y,yacute" g1="o,ograve,oacute,ocircumflex,otilde,odieresis,oslash"/>
<hkern k="20" g2="z" g1="o,ograve,oacute,ocircumflex,otilde,odieresis,oslash"/>
<hkern k="35" g2="x" g1="o,ograve,oacute,ocircumflex,otilde,odieresis,oslash"/>
<hkern k="20" g2="quoteleft,quotedblleft" g1="o,ograve,oacute,ocircumflex,otilde,odieresis,oslash"/>
<hkern k="15" g2="asterisk" g1="a,agrave,aacute,acircumflex,atilde,adieresis,aring"/>
<hkern k="35" g2="question" g1="a,agrave,aacute,acircumflex,atilde,adieresis,aring"/>
<hkern k="20" g2="v" g1="a,agrave,aacute,acircumflex,atilde,adieresis,aring"/>
<hkern k="20" g2="w" g1="a,agrave,aacute,acircumflex,atilde,adieresis,aring"/>
<hkern k="20" g2="y,yacute" g1="a,agrave,aacute,acircumflex,atilde,adieresis,aring"/>
<hkern k="5" g2="t" g1="a,agrave,aacute,acircumflex,atilde,adieresis,aring"/>
<hkern k="15" g2="question" g1="c,ccedilla"/>
<hkern k="15" g2="parenright" g1="c,ccedilla"/>
<hkern k="-4" g2="quotedblright" g1="c,ccedilla"/>
<hkern k="10" g2="d,g,q" g1="c,ccedilla"/>
<hkern k="15" g2="c,e,o,ccedilla,egrave,eacute,ecircumflex,edieresis,eth,ograve,oacute,ocircumflex,otilde,odieresis,oslash,oe" g1="c,ccedilla"/>
<hkern k="5" g2="v" g1="c,ccedilla"/>
<hkern k="5" g2="w" g1="c,ccedilla"/>
<hkern k="5" g2="y,yacute" g1="c,ccedilla"/>
<hkern k="10" g2="x" g1="c,ccedilla"/>
<hkern k="10" g2="guillemotleft,guilsinglleft" g1="c,ccedilla"/>
<hkern k="20" g2="asterisk" g1="e,ae,egrave,eacute,ecircumflex,edieresis,oe"/>
<hkern k="40" g2="question" g1="e,ae,egrave,eacute,ecircumflex,edieresis,oe"/>
<hkern k="10" g2="braceright" g1="e,ae,egrave,eacute,ecircumflex,edieresis,oe"/>
<hkern k="20" g2="bracketright" g1="e,ae,egrave,eacute,ecircumflex,edieresis,oe"/>
<hkern k="30" g2="parenright" g1="e,ae,egrave,eacute,ecircumflex,edieresis,oe"/>
<hkern k="10" g2="comma,period,ellipsis" g1="e,ae,egrave,eacute,ecircumflex,edieresis,oe"/>
<hkern k="25" g2="v" g1="e,ae,egrave,eacute,ecircumflex,edieresis,oe"/>
<hkern k="25" g2="w" g1="e,ae,egrave,eacute,ecircumflex,edieresis,oe"/>
<hkern k="25" g2="y,yacute" g1="e,ae,egrave,eacute,ecircumflex,edieresis,oe"/>
<hkern k="15" g2="z" g1="e,ae,egrave,eacute,ecircumflex,edieresis,oe"/>
<hkern k="30" g2="x" g1="e,ae,egrave,eacute,ecircumflex,edieresis,oe"/>
<hkern k="-30" g2="asterisk" g1="f"/>
<hkern k="-35" g2="question" g1="f"/>
<hkern k="-30" g2="braceright" g1="f"/>
<hkern k="-20" g2="bracketright" g1="f"/>
<hkern k="-30" g2="parenright" g1="f"/>
<hkern k="45" g2="slash" g1="f"/>
<hkern k="45" g2="comma,period,ellipsis" g1="f"/>
<hkern k="-35" g2="quotedblright" g1="f"/>
<hkern k="10" g2="d,g,q" g1="f"/>
<hkern k="10" g2="c,e,o,ccedilla,egrave,eacute,ecircumflex,edieresis,eth,ograve,oacute,ocircumflex,otilde,odieresis,oslash,oe" g1="f"/>
<hkern k="15" g2="a,agrave,aacute,acircumflex,atilde,adieresis,aring,ae" g1="f"/>
<hkern k="10" g2="z" g1="f"/>
<hkern k="15" g2="guillemotleft,guilsinglleft" g1="f"/>
<hkern k="-30" g2="quoteleft,quotedblleft" g1="f"/>
<hkern k="-51" g2="registered,trademark" g1="f"/>
<hkern k="-17" g2="asterisk" g1="r"/>
<hkern k="75" g2="slash" g1="r"/>
<hkern k="90" g2="comma,period,ellipsis" g1="r"/>
<hkern k="-35" g2="quotedblright" g1="r"/>
<hkern k="21" g2="d,g,q" g1="r"/>
<hkern k="22" g2="c,e,o,ccedilla,egrave,eacute,ecircumflex,edieresis,eth,ograve,oacute,ocircumflex,otilde,odieresis,oslash,oe" g1="r"/>
<hkern k="25" g2="a,agrave,aacute,acircumflex,atilde,adieresis,aring,ae" g1="r"/>
<hkern k="10" g2="z" g1="r"/>
<hkern k="10" g2="guillemotleft,guilsinglleft" g1="r"/>
<hkern k="-20" g2="quoteleft,quotedblleft" g1="r"/>
<hkern k="35" g2="question" g1="s,scaron"/>
<hkern k="10" g2="braceright" g1="s,scaron"/>
<hkern k="15" g2="bracketright" g1="s,scaron"/>
<hkern k="20" g2="parenright" g1="s,scaron"/>
<hkern k="10" g2="s,scaron" g1="s,scaron"/>
<hkern k="20" g2="v" g1="s,scaron"/>
<hkern k="15" g2="w" g1="s,scaron"/>
<hkern k="15" g2="y,yacute" g1="s,scaron"/>
<hkern k="10" g2="z" g1="s,scaron"/>
<hkern k="25" g2="x" g1="s,scaron"/>
<hkern k="10" g2="guillemotleft,guilsinglleft" g1="s,scaron"/>
<hkern k="10" g2="t" g1="s,scaron"/>
<hkern k="10" g2="quoteleft,quotedblleft" g1="s,scaron"/>
<hkern k="10" g2="question" g1="v"/>
<hkern k="10" g2="braceright" g1="v"/>
<hkern k="20" g2="bracketright" g1="v"/>
<hkern k="70" g2="slash" g1="v"/>
<hkern k="15" g2="guillemotright,guilsinglright" g1="v"/>
<hkern k="85" g2="comma,period,ellipsis" g1="v"/>
<hkern k="25" g2="d,g,q" g1="v"/>
<hkern k="30" g2="c,e,o,ccedilla,egrave,eacute,ecircumflex,edieresis,eth,ograve,oacute,ocircumflex,otilde,odieresis,oslash,oe" g1="v"/>
<hkern k="25" g2="a,agrave,aacute,acircumflex,atilde,adieresis,aring,ae" g1="v"/>
<hkern k="20" g2="s,scaron" g1="v"/>
<hkern k="15" g2="v" g1="v"/>
<hkern k="15" g2="w" g1="v"/>
<hkern k="15" g2="y,yacute" g1="v"/>
<hkern k="5" g2="z" g1="v"/>
<hkern k="10" g2="x" g1="v"/>
<hkern k="15" g2="hyphen,endash,emdash" g1="v"/>
<hkern k="30" g2="guillemotleft,guilsinglleft" g1="v"/>
<hkern k="10" g2="question" g1="w"/>
<hkern k="10" g2="braceright" g1="w"/>
<hkern k="20" g2="bracketright" g1="w"/>
<hkern k="60" g2="slash" g1="w"/>
<hkern k="10" g2="guillemotright,guilsinglright" g1="w"/>
<hkern k="70" g2="comma,period,ellipsis" g1="w"/>
<hkern k="20" g2="d,g,q" g1="w"/>
<hkern k="25" g2="c,e,o,ccedilla,egrave,eacute,ecircumflex,edieresis,eth,ograve,oacute,ocircumflex,otilde,odieresis,oslash,oe" g1="w"/>
<hkern k="20" g2="a,agrave,aacute,acircumflex,atilde,adieresis,aring,ae" g1="w"/>
<hkern k="15" g2="s,scaron" g1="w"/>
<hkern k="15" g2="v" g1="w"/>
<hkern k="10" g2="w" g1="w"/>
<hkern k="10" g2="y,yacute" g1="w"/>
<hkern k="5" g2="z" g1="w"/>
<hkern k="10" g2="x" g1="w"/>
<hkern k="10" g2="hyphen,endash,emdash" g1="w"/>
<hkern k="20" g2="guillemotleft,guilsinglleft" g1="w"/>
<hkern k="15" g2="question" g1="x"/>
<hkern k="10" g2="braceright" g1="x"/>
<hkern k="10" g2="bracketright" g1="x"/>
<hkern k="15" g2="guillemotright,guilsinglright" g1="x"/>
<hkern k="30" g2="d,g,q" g1="x"/>
<hkern k="35" g2="c,e,o,ccedilla,egrave,eacute,ecircumflex,edieresis,eth,ograve,oacute,ocircumflex,otilde,odieresis,oslash,oe" g1="x"/>
<hkern k="15" g2="a,agrave,aacute,acircumflex,atilde,adieresis,aring,ae" g1="x"/>
<hkern k="20" g2="s,scaron" g1="x"/>
<hkern k="10" g2="v" g1="x"/>
<hkern k="10" g2="w" g1="x"/>
<hkern k="10" g2="y,yacute" g1="x"/>
<hkern k="30" g2="hyphen,endash,emdash" g1="x"/>
<hkern k="45" g2="guillemotleft,guilsinglleft" g1="x"/>
<hkern k="10" g2="question" g1="y,yacute"/>
<hkern k="10" g2="braceright" g1="y,yacute"/>
<hkern k="20" g2="bracketright" g1="y,yacute"/>
<hkern k="70" g2="slash" g1="y,yacute"/>
<hkern k="15" g2="guillemotright,guilsinglright" g1="y,yacute"/>
<hkern k="85" g2="comma,period,ellipsis" g1="y,yacute"/>
<hkern k="25" g2="d,g,q" g1="y,yacute"/>
<hkern k="30" g2="c,e,o,ccedilla,egrave,eacute,ecircumflex,edieresis,eth,ograve,oacute,ocircumflex,otilde,odieresis,oslash,oe" g1="y,yacute"/>
<hkern k="25" g2="a,agrave,aacute,acircumflex,atilde,adieresis,aring,ae" g1="y,yacute"/>
<hkern k="20" g2="s,scaron" g1="y,yacute"/>
<hkern k="15" g2="v" g1="y,yacute"/>
<hkern k="10" g2="w" g1="y,yacute"/>
<hkern k="10" g2="y,yacute" g1="y,yacute"/>
<hkern k="5" g2="z" g1="y,yacute"/>
<hkern k="10" g2="x" g1="y,yacute"/>
<hkern k="15" g2="hyphen,endash,emdash" g1="y,yacute"/>
<hkern k="30" g2="guillemotleft,guilsinglleft" g1="y,yacute"/>
<hkern k="80" g2="AE" g1="F"/>
<hkern k="80" g2="A,Agrave,Aacute,Acircumflex,Atilde,Adieresis,Aring" g1="F"/>
<hkern k="110" g2="J" g1="F"/>
<hkern k="15" g2="guillemotright,guilsinglright" g1="F"/>
<hkern k="100" g2="comma,period,ellipsis" g1="F"/>
<hkern k="-20" g2="quotedblright" g1="F"/>
<hkern k="15" g2="C,G,O,Q,Ccedilla,Ograve,Oacute,Ocircumflex,Otilde,Odieresis,Oslash,OE" g1="F"/>
<hkern k="10" g2="Z" g1="F"/>
<hkern k="10" g2="d,g,q" g1="F"/>
<hkern k="15" g2="c,e,o,ccedilla,egrave,eacute,ecircumflex,edieresis,eth,ograve,oacute,ocircumflex,otilde,odieresis,oslash,oe" g1="F"/>
<hkern k="25" g2="a,agrave,aacute,acircumflex,atilde,adieresis,aring,ae" g1="F"/>
<hkern k="10" g2="s,scaron" g1="F"/>
<hkern k="15" g2="v" g1="F"/>
<hkern k="10" g2="w" g1="F"/>
<hkern k="15" g2="y,yacute" g1="F"/>
<hkern k="15" g2="z" g1="F"/>
<hkern k="48" g2="T" g1="Q"/>
<hkern k="41" g2="V" g1="Q"/>
<hkern k="36" g2="W" g1="Q"/>
<hkern k="65" g2="Y,Yacute,Ydieresis" g1="Q"/>
<hkern k="100" g2="AE" g1="V"/>
<hkern k="100" g2="A,Agrave,Aacute,Acircumflex,Atilde,Adieresis,Aring" g1="V"/>
<hkern k="120" g2="J" g1="V"/>
<hkern k="40" g2="guillemotright,guilsinglright" g1="V"/>
<hkern k="120" g2="comma,period,ellipsis" g1="V"/>
<hkern k="41" g2="C,G,O,Q,Ccedilla,Ograve,Oacute,Ocircumflex,Otilde,Odieresis,Oslash,OE" g1="V"/>
<hkern k="10" g2="Z" g1="V"/>
<hkern k="65" g2="d,g,q" g1="V"/>
<hkern k="70" g2="c,e,o,ccedilla,egrave,eacute,ecircumflex,edieresis,eth,ograve,oacute,ocircumflex,otilde,odieresis,oslash,oe" g1="V"/>
<hkern k="70" g2="a,agrave,aacute,acircumflex,atilde,adieresis,aring,ae" g1="V"/>
<hkern k="60" g2="s,scaron" g1="V"/>
<hkern k="40" g2="v" g1="V"/>
<hkern k="35" g2="w" g1="V"/>
<hkern k="40" g2="y,yacute" g1="V"/>
<hkern k="55" g2="z" g1="V"/>
<hkern k="10" g2="V" g1="V"/>
<hkern k="10" g2="W" g1="V"/>
<hkern k="20" g2="Y,Yacute,Ydieresis" g1="V"/>
<hkern k="25" g2="S,Scaron" g1="V"/>
<hkern k="20" g2="X" g1="V"/>
<hkern k="50" g2="x" g1="V"/>
<hkern k="20" g2="colon,semicolon" g1="V"/>
<hkern k="40" g2="hyphen,endash,emdash" g1="V"/>
<hkern k="60" g2="guillemotleft,guilsinglleft" g1="V"/>
<hkern k="10" g2="b,h,k,l" g1="V"/>
<hkern k="40" g2="m,n,p,r,ntilde" g1="V"/>
<hkern k="25" g2="f" g1="V"/>
<hkern k="20" g2="i,igrave,iacute,icircumflex,idieresis" g1="V"/>
<hkern k="20" g2="t" g1="V"/>
<hkern k="40" g2="u,ugrave,uacute,ucircumflex,udieresis" g1="V"/>
<hkern k="79" g2="T" g1="ampersand"/>
<hkern k="59" g2="V" g1="ampersand"/>
<hkern k="49" g2="W" g1="ampersand"/>
<hkern k="67" g2="Y,Yacute,Ydieresis" g1="ampersand"/>
<hkern k="7" g2="S,Scaron" g1="ampersand"/>
<hkern k="100" g2="AE" g1="asterisk"/>
<hkern k="100" g2="A,Agrave,Aacute,Acircumflex,Atilde,Adieresis,Aring" g1="asterisk"/>
<hkern k="80" g2="J" g1="asterisk"/>
<hkern k="15" g2="d,g,q" g1="asterisk"/>
<hkern k="20" g2="c,e,o,ccedilla,egrave,eacute,ecircumflex,edieresis,eth,ograve,oacute,ocircumflex,otilde,odieresis,oslash,oe" g1="asterisk"/>
<hkern k="10" g2="a,agrave,aacute,acircumflex,atilde,adieresis,aring,ae" g1="asterisk"/>
<hkern k="10" g2="s,scaron" g1="asterisk"/>
<hkern k="11" g2="C,G,O,Q,Ccedilla,Ograve,Oacute,Ocircumflex,Otilde,Odieresis,Oslash,OE" g1="backslash"/>
<hkern k="10" g2="J" g1="braceleft"/>
<hkern k="20" g2="C,G,O,Q,Ccedilla,Ograve,Oacute,Ocircumflex,Otilde,Odieresis,Oslash,OE" g1="braceleft"/>
<hkern k="15" g2="d,g,q" g1="braceleft"/>
<hkern k="15" g2="c,e,o,ccedilla,egrave,eacute,ecircumflex,edieresis,eth,ograve,oacute,ocircumflex,otilde,odieresis,oslash,oe" g1="braceleft"/>
<hkern k="10" g2="s,scaron" g1="braceleft"/>
<hkern k="10" g2="v" g1="braceleft"/>
<hkern k="10" g2="w" g1="braceleft"/>
<hkern k="10" g2="y,yacute" g1="braceleft"/>
<hkern k="10" g2="z" g1="braceleft"/>
<hkern k="10" g2="x" g1="braceleft"/>
<hkern k="10" g2="J" g1="bracketleft"/>
<hkern k="20" g2="C,G,O,Q,Ccedilla,Ograve,Oacute,Ocircumflex,Otilde,Odieresis,Oslash,OE" g1="bracketleft"/>
<hkern k="20" g2="d,g,q" g1="bracketleft"/>
<hkern k="20" g2="c,e,o,ccedilla,egrave,eacute,ecircumflex,edieresis,eth,ograve,oacute,ocircumflex,otilde,odieresis,oslash,oe" g1="bracketleft"/>
<hkern k="10" g2="a,agrave,aacute,acircumflex,atilde,adieresis,aring,ae" g1="bracketleft"/>
<hkern k="15" g2="s,scaron" g1="bracketleft"/>
<hkern k="20" g2="v" g1="bracketleft"/>
<hkern k="20" g2="w" g1="bracketleft"/>
<hkern k="10" g2="y,yacute" g1="bracketleft"/>
<hkern k="10" g2="x" g1="bracketleft"/>
<hkern k="10" g2="v" g1="germandbls"/>
<hkern k="5" g2="w" g1="germandbls"/>
<hkern k="10" g2="y,yacute" g1="germandbls"/>
<hkern k="10" g2="x" g1="germandbls"/>
<hkern k="10" g2="comma,period,ellipsis" g1="nine"/>
<hkern k="15" g2="J" g1="parenleft"/>
<hkern k="30" g2="C,G,O,Q,Ccedilla,Ograve,Oacute,Ocircumflex,Otilde,Odieresis,Oslash,OE" g1="parenleft"/>
<hkern k="30" g2="d,g,q" g1="parenleft"/>
<hkern k="30" g2="c,e,o,ccedilla,egrave,eacute,ecircumflex,edieresis,eth,ograve,oacute,ocircumflex,otilde,odieresis,oslash,oe" g1="parenleft"/>
<hkern k="15" g2="s,scaron" g1="parenleft"/>
<hkern k="20" g2="C,G,O,Q,Ccedilla,Ograve,Oacute,Ocircumflex,Otilde,Odieresis,Oslash,OE" g1="questiondown"/>
<hkern k="-10" g2="a,agrave,aacute,acircumflex,atilde,adieresis,aring,ae" g1="questiondown"/>
<hkern k="45" g2="v" g1="questiondown"/>
<hkern k="35" g2="w" g1="questiondown"/>
<hkern k="35" g2="y,yacute" g1="questiondown"/>
<hkern k="60" g2="T" g1="questiondown"/>
<hkern k="60" g2="V" g1="questiondown"/>
<hkern k="50" g2="W" g1="questiondown"/>
<hkern k="70" g2="Y,Yacute,Ydieresis" g1="questiondown"/>
<hkern k="10" g2="X" g1="questiondown"/>
<hkern k="10" g2="f" g1="questiondown"/>
<hkern k="15" g2="t" g1="questiondown"/>
<hkern k="15" g2="U,Ugrave,Uacute,Ucircumflex,Udieresis" g1="questiondown"/>
<hkern k="100" g2="comma,period,ellipsis" g1="seven"/>
<hkern k="30" g2="hyphen,endash,emdash" g1="seven"/>
<hkern k="120" g2="AE" g1="slash"/>
<hkern k="120" g2="A,Agrave,Aacute,Acircumflex,Atilde,Adieresis,Aring" g1="slash"/>
<hkern k="130" g2="J" g1="slash"/>
<hkern k="40" g2="C,G,O,Q,Ccedilla,Ograve,Oacute,Ocircumflex,Otilde,Odieresis,Oslash,OE" g1="slash"/>
<hkern k="20" g2="Z" g1="slash"/>
<hkern k="70" g2="d,g,q" g1="slash"/>
<hkern k="80" g2="c,e,o,ccedilla,egrave,eacute,ecircumflex,edieresis,eth,ograve,oacute,ocircumflex,otilde,odieresis,oslash,oe" g1="slash"/>
<hkern k="65" g2="a,agrave,aacute,acircumflex,atilde,adieresis,aring,ae" g1="slash"/>
<hkern k="85" g2="s,scaron" g1="slash"/>
<hkern k="50" g2="v" g1="slash"/>
<hkern k="50" g2="w" g1="slash"/>
<hkern k="50" g2="y,yacute" g1="slash"/>
<hkern k="60" g2="z" g1="slash"/>
<hkern k="30" g2="S,Scaron" g1="slash"/>
<hkern k="50" g2="x" g1="slash"/>
<hkern k="50" g2="m,n,p,r,ntilde" g1="slash"/>
<hkern k="25" g2="f" g1="slash"/>
<hkern k="20" g2="t" g1="slash"/>
<hkern k="50" g2="u,ugrave,uacute,ucircumflex,udieresis" g1="slash"/>
<hkern k="20" g2="comma,period,ellipsis" g1="zero"/>
<hkern k="3" g2="J" g1="C,Ccedilla"/>
<hkern k="20" g2="C,G,O,Q,Ccedilla,Ograve,Oacute,Ocircumflex,Otilde,Odieresis,Oslash,OE" g1="C,Ccedilla"/>
<hkern k="10" g2="d,g,q" g1="C,Ccedilla"/>
<hkern k="10" g2="c,e,o,ccedilla,egrave,eacute,ecircumflex,edieresis,eth,ograve,oacute,ocircumflex,otilde,odieresis,oslash,oe" g1="C,Ccedilla"/>
<hkern k="10" g2="v" g1="C,Ccedilla"/>
<hkern k="10" g2="w" g1="C,Ccedilla"/>
<hkern k="10" g2="y,yacute" g1="C,Ccedilla"/>
<hkern k="1" g2="V" g1="C,Ccedilla"/>
<hkern k="1" g2="W" g1="C,Ccedilla"/>
<hkern k="10" g2="Y,Yacute,Ydieresis" g1="C,Ccedilla"/>
<hkern k="10" g2="X" g1="C,Ccedilla"/>
<hkern k="10" g2="x" g1="C,Ccedilla"/>
<hkern k="10" g2="hyphen,endash,emdash" g1="C,Ccedilla"/>
<hkern k="10" g2="d,g,q" g1="E,AE,Egrave,Eacute,Ecircumflex,Edieresis,OE"/>
<hkern k="10" g2="c,e,o,ccedilla,egrave,eacute,ecircumflex,edieresis,eth,ograve,oacute,ocircumflex,otilde,odieresis,oslash,oe" g1="E,AE,Egrave,Eacute,Ecircumflex,Edieresis,OE"/>
<hkern k="10" g2="v" g1="E,AE,Egrave,Eacute,Ecircumflex,Edieresis,OE"/>
<hkern k="10" g2="w" g1="E,AE,Egrave,Eacute,Ecircumflex,Edieresis,OE"/>
<hkern k="10" g2="y,yacute" g1="E,AE,Egrave,Eacute,Ecircumflex,Edieresis,OE"/>
<hkern k="25" g2="two.sup,three.sup,one.sup" g1="two.sup,three.sup,one.sup"/>
<hkern k="25" g2="AE" g1="J"/>
<hkern k="25" g2="A,Agrave,Aacute,Acircumflex,Atilde,Adieresis,Aring" g1="J"/>
<hkern k="20" g2="J" g1="J"/>
<hkern k="15" g2="comma,period,ellipsis" g1="J"/>
<hkern k="39" g2="T" g1="colon,semicolon"/>
<hkern k="20" g2="V" g1="colon,semicolon"/>
<hkern k="15" g2="W" g1="colon,semicolon"/>
<hkern k="40" g2="Y,Yacute,Ydieresis" g1="colon,semicolon"/>
<hkern k="5" g2="d,g,q" g1="guillemotleft,guilsinglleft"/>
<hkern k="10" g2="c,e,o,ccedilla,egrave,eacute,ecircumflex,edieresis,eth,ograve,oacute,ocircumflex,otilde,odieresis,oslash,oe" g1="guillemotleft,guilsinglleft"/>
<hkern k="15" g2="v" g1="guillemotleft,guilsinglleft"/>
<hkern k="10" g2="w" g1="guillemotleft,guilsinglleft"/>
<hkern k="15" g2="y,yacute" g1="guillemotleft,guilsinglleft"/>
<hkern k="70" g2="T" g1="guillemotleft,guilsinglleft"/>
<hkern k="40" g2="V" g1="guillemotleft,guilsinglleft"/>
<hkern k="35" g2="W" g1="guillemotleft,guilsinglleft"/>
<hkern k="75" g2="Y,Yacute,Ydieresis" g1="guillemotleft,guilsinglleft"/>
<hkern k="20" g2="X" g1="guillemotleft,guilsinglleft"/>
<hkern k="15" g2="x" g1="guillemotleft,guilsinglleft"/>
<hkern k="20" g2="AE" g1="guillemotright,guilsinglright"/>
<hkern k="20" g2="A,Agrave,Aacute,Acircumflex,Atilde,Adieresis,Aring" g1="guillemotright,guilsinglright"/>
<hkern k="15" g2="Z" g1="guillemotright,guilsinglright"/>
<hkern k="10" g2="s,scaron" g1="guillemotright,guilsinglright"/>
<hkern k="30" g2="v" g1="guillemotright,guilsinglright"/>
<hkern k="20" g2="w" g1="guillemotright,guilsinglright"/>
<hkern k="30" g2="y,yacute" g1="guillemotright,guilsinglright"/>
<hkern k="20" g2="z" g1="guillemotright,guilsinglright"/>
<hkern k="90" g2="T" g1="guillemotright,guilsinglright"/>
<hkern k="60" g2="V" g1="guillemotright,guilsinglright"/>
<hkern k="50" g2="W" g1="guillemotright,guilsinglright"/>
<hkern k="100" g2="Y,Yacute,Ydieresis" g1="guillemotright,guilsinglright"/>
<hkern k="10" g2="S,Scaron" g1="guillemotright,guilsinglright"/>
<hkern k="50" g2="X" g1="guillemotright,guilsinglright"/>
<hkern k="45" g2="x" g1="guillemotright,guilsinglright"/>
<hkern k="10" g2="f" g1="guillemotright,guilsinglright"/>
<hkern k="10" g2="t" g1="guillemotright,guilsinglright"/>
<hkern k="100" g2="AE" g1="quotedblright"/>
<hkern k="100" g2="A,Agrave,Aacute,Acircumflex,Atilde,Adieresis,Aring" g1="quotedblright"/>
<hkern k="100" g2="J" g1="quotedblright"/>
<hkern k="37" g2="d,g,q" g1="quotedblright"/>
<hkern k="42" g2="c,e,o,ccedilla,egrave,eacute,ecircumflex,edieresis,eth,ograve,oacute,ocircumflex,otilde,odieresis,oslash,oe" g1="quotedblright"/>
<hkern k="20" g2="a,agrave,aacute,acircumflex,atilde,adieresis,aring,ae" g1="quotedblright"/>
<hkern k="26" g2="s,scaron" g1="quotedblright"/>
<hkern k="5" g2="J" g1="R"/>
<hkern k="5" g2="d,g,q" g1="R"/>
<hkern k="10" g2="c,e,o,ccedilla,egrave,eacute,ecircumflex,edieresis,eth,ograve,oacute,ocircumflex,otilde,odieresis,oslash,oe" g1="R"/>
<hkern k="7" g2="T" g1="R"/>
<hkern k="20" g2="V" g1="R"/>
<hkern k="15" g2="W" g1="R"/>
<hkern k="25" g2="Y,Yacute,Ydieresis" g1="R"/>
<hkern k="10" g2="guillemotright,guilsinglright" g1="k"/>
<hkern k="25" g2="d,g,q" g1="k"/>
<hkern k="25" g2="c,e,o,ccedilla,egrave,eacute,ecircumflex,edieresis,eth,ograve,oacute,ocircumflex,otilde,odieresis,oslash,oe" g1="k"/>
<hkern k="10" g2="a,agrave,aacute,acircumflex,atilde,adieresis,aring,ae" g1="k"/>
<hkern k="20" g2="v" g1="k"/>
<hkern k="20" g2="w" g1="k"/>
<hkern k="15" g2="y,yacute" g1="k"/>
<hkern k="20" g2="hyphen,endash,emdash" g1="k"/>
<hkern k="20" g2="guillemotleft,guilsinglleft" g1="k"/>
<hkern k="10" g2="t" g1="k"/>
<hkern k="10" g2="u,ugrave,uacute,ucircumflex,udieresis" g1="k"/>
<hkern k="-3" g2="quotedblright" g1="t"/>
<hkern k="15" g2="d,g,q" g1="t"/>
<hkern k="15" g2="c,e,o,ccedilla,egrave,eacute,ecircumflex,edieresis,eth,ograve,oacute,ocircumflex,otilde,odieresis,oslash,oe" g1="t"/>
<hkern k="10" g2="guillemotleft,guilsinglleft" g1="t"/>
<hkern k="15" g2="d,g,q" g1="z"/>
<hkern k="15" g2="c,e,o,ccedilla,egrave,eacute,ecircumflex,edieresis,eth,ograve,oacute,ocircumflex,otilde,odieresis,oslash,oe" g1="z"/>
<hkern k="15" g2="guillemotleft,guilsinglleft" g1="z"/>
</font>
</defs>
</svg>
